Development/tb/dumpfile.vcd
$date
	Wed Jun 22 11:21:20 2022
$end

$version
	Synopsys VCS version R-2020.12-SP2_Full64
$end

$timescale
	1s
$end

$comment Csum: 1 2a5247227a18b934 $end


$scope module $unit $end
$upscope $end


$scope module ei_axi4_helper_functions $end

$scope function calculate_size_aligned_address $end
$var reg 32 ! calculate_size_aligned_address [31:0] $end
$var reg 32 " address [31:0] $end
$var reg 3 # awsize [2:0] $end
$upscope $end


$scope function get_wstrb $end
$var reg 8 $ get_wstrb [7:0] $end
$var reg 32 % awaddr [31:0] $end
$var reg 2 & awburst [1:0] $end
$var reg 3 ' awsize [2:0] $end
$var reg 8 ( awlen [7:0] $end
$var reg 32 ) beat_no [31:0] $end
$var reg 6 * transfer_size [5:0] $end

$scope begin unnamed$$_0 $end
$var reg 32 + lower_wrap_boundary [31:0] $end
$var reg 32 , upper_wrap_boundary [31:0] $end
$upscope $end

$upscope $end

$upscope $end


$scope module ei_axi4_top $end
$var reg 1 - aclk $end
$var reg 1 . aresetn $end
$var reg 1 / dummy $end

$scope begin unnamed$$_vcs_3 $end
$upscope $end


$scope begin unnamed$$_vcs_0 $end
$upscope $end


$scope begin unnamed$$_vcs_1 $end
$upscope $end


$scope begin unnamed$$_vcs_2 $end
$upscope $end


$scope begin unnamed$$_vcs_4 $end
$upscope $end


$scope module pif $end
$var reg 1 0 aresetn $end
$var reg 1 1 bvalid $end
$var reg 1 2 arvalid $end
$var reg 1 3 aclk $end
$var reg 32 4 awaddr [31:0] $end
$var reg 8 5 awlen [7:0] $end
$var reg 3 6 awsize [2:0] $end
$var reg 2 7 awburst [1:0] $end
$var reg 1 8 awvalid $end
$var reg 1 9 awready $end
$var reg 64 : wdata [63:0] $end
$var reg 8 ; wstrb [7:0] $end
$var reg 1 < wlast $end
$var reg 1 = wvalid $end
$var reg 1 > wready $end
$var reg 2 ? bresp [1:0] $end
$var reg 1 @ bready $end
$var reg 32 A araddr [31:0] $end
$var reg 2 B arburst [1:0] $end
$var reg 8 C arlen [7:0] $end
$var reg 3 D arsize [2:0] $end
$var reg 1 E arready $end
$var reg 64 F rdata [63:0] $end
$var reg 2 G rresp [1:0] $end
$var reg 1 H rlast $end
$var reg 1 I rvalid $end
$var reg 1 J rready $end

$scope module axi_assertion $end
$var reg 1 3 aclk $end
$var reg 1 0 aresetn $end
$var reg 32 K awaddr [31:0] $end
$var reg 8 L awlen [7:0] $end
$var reg 3 M awsize [2:0] $end
$var reg 2 N awburst [1:0] $end
$var reg 1 8 awvalid $end
$var reg 1 9 awready $end
$var reg 64 O wdata [63:0] $end
$var reg 8 P wstrb [7:0] $end
$var reg 1 < wlast $end
$var reg 1 = wvalid $end
$var reg 1 > wready $end
$var reg 2 Q bresp [1:0] $end
$var reg 1 1 bvalid $end
$var reg 1 @ bready $end
$var reg 32 R araddr [31:0] $end
$var reg 2 S arburst [1:0] $end
$var reg 8 T arlen [7:0] $end
$var reg 3 U arsize [2:0] $end
$var reg 1 V arvalid $end
$var reg 1 E arready $end
$var reg 64 W rdata [63:0] $end
$var reg 2 X rresp [1:0] $end
$var reg 1 H rlast $end
$var reg 1 I rvalid $end
$var reg 1 J rready $end
$var wire 1 Y temp_aresetn $end

$scope function pass_print_f $end
$upscope $end


$scope function fail_print_f $end
$upscope $end


$scope task _$$txp______assert_AXI4_ASSERTION_002 $end
$upscope $end


$scope task _$$txp______assert_AXI4_ASSERTION_003 $end
$upscope $end


$scope task _$$txp______assert_AXI4_ASSERTION_005 $end
$upscope $end


$scope task _$$txp______assert_AXI4_ASSERTION_001 $end
$upscope $end


$scope task _$$txp______assert_AXI4_ASSERTION_004 $end
$upscope $end


$scope task _$$txp______assert_AXI4_ASSERTION_010 $end
$upscope $end


$scope task _$$txp______assert_AXI4_ASSERTION_011 $end
$upscope $end


$scope task _$$txp______assert_AXI4_ASSERTION_013 $end
$upscope $end


$scope task _$$txp______assert_AXI4_ASSERTION_009 $end
$upscope $end


$scope task _$$txp______assert_AXI4_ASSERTION_012 $end
$upscope $end


$scope task _$$txp______assert_AXI4_ASSERTION_015 $end
$upscope $end


$scope task _$$txp______assert_AXI4_ASSERTION_017 $end
$upscope $end


$scope task _$$txp______assert_AXI4_ASSERTION_019 $end
$upscope $end


$scope task _$$txp______assert_AXI4_ASSERTION_022 $end
$upscope $end


$scope task _$$txp______assert_AXI4_ASSERTION_024 $end
$upscope $end


$scope task _$$txp______assert_AXI4_ASSERTION_026 $end
$upscope $end


$scope task _$$txp______assert_AXI4_ASSERTION_031 $end
$upscope $end


$scope task _$$txp______assert_AXI4_ASSERTION_033 $end
$upscope $end


$scope task _$$txp______assert_AXI4_ASSERTION_038 $end
$upscope $end


$scope task _$$txp______assert_AXI4_ASSERTION_042 $end
$upscope $end


$scope task _$$txp______assert_AXI_ASSERTION_036 $end
$upscope $end


$scope task _$$txp______assert_AXI_ASSERTION_029 $end
$upscope $end


$scope task _$$txp_pass_action_AXI4_ASSERTION_002 $end
$upscope $end


$scope task _$$txp_fail_action_AXI4_ASSERTION_002 $end
$upscope $end


$scope task _$$txp_pass_action_AXI4_ASSERTION_003 $end
$upscope $end


$scope task _$$txp_fail_action_AXI4_ASSERTION_003 $end
$upscope $end


$scope task _$$txp_pass_action_AXI4_ASSERTION_005 $end
$upscope $end


$scope task _$$txp_fail_action_AXI4_ASSERTION_005 $end
$upscope $end


$scope task _$$txp_pass_action_AXI4_ASSERTION_001 $end
$upscope $end


$scope task _$$txp_fail_action_AXI4_ASSERTION_001 $end
$upscope $end


$scope task _$$txp_pass_action_AXI4_ASSERTION_004 $end
$upscope $end


$scope task _$$txp_fail_action_AXI4_ASSERTION_004 $end
$upscope $end


$scope task _$$txp_pass_action_AXI4_ASSERTION_007 $end
$upscope $end


$scope task _$$txp_fail_action_AXI4_ASSERTION_007 $end
$upscope $end


$scope task _$$txp_pass_action_AXI4_ASSERTION_008 $end
$upscope $end


$scope task _$$txp_fail_action_AXI4_ASSERTION_008 $end
$upscope $end


$scope task _$$txp_pass_action_AXI4_ASSERTION_006 $end
$upscope $end


$scope task _$$txp_fail_action_AXI4_ASSERTION_006 $end
$upscope $end


$scope task _$$txp_pass_action_AXI4_ASSERTION_010 $end
$upscope $end


$scope task _$$txp_fail_action_AXI4_ASSERTION_010 $end
$upscope $end


$scope task _$$txp_pass_action_AXI4_ASSERTION_011 $end
$upscope $end


$scope task _$$txp_fail_action_AXI4_ASSERTION_011 $end
$upscope $end


$scope task _$$txp_pass_action_AXI4_ASSERTION_013 $end
$upscope $end


$scope task _$$txp_fail_action_AXI4_ASSERTION_013 $end
$upscope $end


$scope task _$$txp_pass_action_AXI4_ASSERTION_009 $end
$upscope $end


$scope task _$$txp_fail_action_AXI4_ASSERTION_009 $end
$upscope $end


$scope task _$$txp_pass_action_AXI4_ASSERTION_012 $end
$upscope $end


$scope task _$$txp_fail_action_AXI4_ASSERTION_012 $end
$upscope $end


$scope task _$$txp_pass_action_AXI4_ASSERTION_014 $end
$upscope $end


$scope task _$$txp_fail_action_AXI4_ASSERTION_014 $end
$upscope $end


$scope task _$$txp_pass_action_AXI4_ASSERTION_016 $end
$upscope $end


$scope task _$$txp_fail_action_AXI4_ASSERTION_016 $end
$upscope $end


$scope task _$$txp_pass_action_AXI4_ASSERTION_018 $end
$upscope $end


$scope task _$$txp_fail_action_AXI4_ASSERTION_018 $end
$upscope $end


$scope task _$$txp_pass_action_AXI4_ASSERTION_020 $end
$upscope $end


$scope task _$$txp_fail_action_AXI4_ASSERTION_020 $end
$upscope $end


$scope task _$$txp_pass_action_AXI4_ASSERTION_021 $end
$upscope $end


$scope task _$$txp_fail_action_AXI4_ASSERTION_021 $end
$upscope $end


$scope task _$$txp_pass_action_AXI4_ASSERTION_023 $end
$upscope $end


$scope task _$$txp_fail_action_AXI4_ASSERTION_023 $end
$upscope $end


$scope task _$$txp_pass_action_AXI4_ASSERTION_025 $end
$upscope $end


$scope task _$$txp_fail_action_AXI4_ASSERTION_025 $end
$upscope $end


$scope task _$$txp_pass_action_AXI4_ASSERTION_027 $end
$upscope $end


$scope task _$$txp_fail_action_AXI4_ASSERTION_027 $end
$upscope $end


$scope task _$$txp_pass_action_AXI4_ASSERTION_028 $end
$upscope $end


$scope task _$$txp_fail_action_AXI4_ASSERTION_028 $end
$upscope $end


$scope task _$$txp_pass_action_AXI4_ASSERTION_030 $end
$upscope $end


$scope task _$$txp_fail_action_AXI4_ASSERTION_030 $end
$upscope $end


$scope task _$$txp_pass_action_AXI4_ASSERTION_032 $end
$upscope $end


$scope task _$$txp_fail_action_AXI4_ASSERTION_032 $end
$upscope $end


$scope task _$$txp_pass_action_AXI4_ASSERTION_035 $end
$upscope $end


$scope task _$$txp_fail_action_AXI4_ASSERTION_035 $end
$upscope $end


$scope task _$$txp_pass_action_AXI4_ASSERTION_037 $end
$upscope $end


$scope task _$$txp_fail_action_AXI4_ASSERTION_037 $end
$upscope $end


$scope task _$$txp_pass_action_AXI4_ASSERTION_039 $end
$upscope $end


$scope task _$$txp_fail_action_AXI4_ASSERTION_039 $end
$upscope $end


$scope task _$$txp_pass_action_AXI4_ASSERTION_041 $end
$upscope $end


$scope task _$$txp_fail_action_AXI4_ASSERTION_041 $end
$upscope $end


$scope task _$$txp_pass_action_AXI4_ASSERTION_015 $end
$upscope $end


$scope task _$$txp_fail_action_AXI4_ASSERTION_015 $end
$upscope $end


$scope task _$$txp_pass_action_AXI4_ASSERTION_017 $end
$upscope $end


$scope task _$$txp_fail_action_AXI4_ASSERTION_017 $end
$upscope $end


$scope task _$$txp_pass_action_AXI4_ASSERTION_019 $end
$upscope $end


$scope task _$$txp_fail_action_AXI4_ASSERTION_019 $end
$upscope $end


$scope task _$$txp_pass_action_AXI4_ASSERTION_022 $end
$upscope $end


$scope task _$$txp_fail_action_AXI4_ASSERTION_022 $end
$upscope $end


$scope task _$$txp_pass_action_AXI4_ASSERTION_024 $end
$upscope $end


$scope task _$$txp_fail_action_AXI4_ASSERTION_024 $end
$upscope $end


$scope task _$$txp_pass_action_AXI4_ASSERTION_026 $end
$upscope $end


$scope task _$$txp_fail_action_AXI4_ASSERTION_026 $end
$upscope $end


$scope task _$$txp_pass_action_AXI4_ASSERTION_031 $end
$upscope $end


$scope task _$$txp_fail_action_AXI4_ASSERTION_031 $end
$upscope $end


$scope task _$$txp_pass_action_AXI4_ASSERTION_033 $end
$upscope $end


$scope task _$$txp_fail_action_AXI4_ASSERTION_033 $end
$upscope $end


$scope task _$$txp_pass_action_AXI4_ASSERTION_038 $end
$upscope $end


$scope task _$$txp_fail_action_AXI4_ASSERTION_038 $end
$upscope $end


$scope task _$$txp_pass_action_AXI4_ASSERTION_042 $end
$upscope $end


$scope task _$$txp_fail_action_AXI4_ASSERTION_042 $end
$upscope $end


$scope task _$$txp_pass_action_AXI_ASSERTION_036 $end
$upscope $end


$scope task _$$txp_fail_action_AXI_ASSERTION_036 $end
$upscope $end


$scope task _$$txp_pass_action_AXI_ASSERTION_029 $end
$upscope $end


$scope task _$$txp_fail_action_AXI_ASSERTION_029 $end
$upscope $end


$scope task _$$txp_pass_action_AXI_ASSERTION_043 $end
$upscope $end


$scope task _$$txp_fail_action_AXI_ASSERTION_043 $end
$upscope $end


$scope task _$$txp_pass_action_AXI_ASSERTION_044 $end
$upscope $end


$scope task _$$txp_fail_action_AXI_ASSERTION_044 $end
$upscope $end


$scope task _$$txp_pass_action_AXI_ASSERTION_040 $end
$upscope $end


$scope task _$$txp_fail_action_AXI_ASSERTION_040 $end
$upscope $end


$scope task _$$txp_pass_action_AXI_ASSERTION_034 $end
$upscope $end


$scope task _$$txp_fail_action_AXI_ASSERTION_034 $end
$upscope $end

$upscope $end

$upscope $end

$upscope $end

$enddefinitions $end

#0
$dumpvars
b01100101111001000010101110101010 "
b010 #
b01100101111001000010101110101000 !
b01100101111001000010101110101000 %
b00 &
b00000011 (
b010 '
b00000000000000000000000000000011 )
b00001100 $
b000100 *
b00000000000000000000000000000000 +
b00000000000000000000000000000000 ,
0-
1.
bxx G
bxxxxxxxxxxxxxxxxxxxxxxxxxxxxxxxxxxxxxxxxxxxxxxxxxxxxxxxxxxxxxxxx F
bxxx D
bxxxxxxxx C
bxx B
bxxxxxxxxxxxxxxxxxxxxxxxxxxxxxxxx A
bxx ?
bxxxxxxxx ;
bxxxxxxxxxxxxxxxxxxxxxxxxxxxxxxxxxxxxxxxxxxxxxxxxxxxxxxxxxxxxxxxx :
bxx 7
bxxx 6
bxxxxxxxx 5
bxxxxxxxxxxxxxxxxxxxxxxxxxxxxxxxx 4
bxx X
bxxxxxxxxxxxxxxxxxxxxxxxxxxxxxxxxxxxxxxxxxxxxxxxxxxxxxxxxxxxxxxxx W
bxxx U
bxxxxxxxx T
bxx S
bxxxxxxxxxxxxxxxxxxxxxxxxxxxxxxxx R
bxx Q
bxxxxxxxx P
bxxxxxxxxxxxxxxxxxxxxxxxxxxxxxxxxxxxxxxxxxxxxxxxxxxxxxxxxxxxxxxxx O
bxx N
bxxx M
bxxxxxxxx L
bxxxxxxxxxxxxxxxxxxxxxxxxxxxxxxxx K
0/
03
10
xE
x2
x9
x8
x@
x1
xH
xJ
xI
x<
x>
x=
xV
xY
$end
#1
1Y
#5
1-
13
#6
19
1>
bzz ?
bzz Q
1E
18
b10000111000010100111000000011100 4
b10000111000010100111000000011100 K
b00 7
b00 N
b00000011 5
b00000011 L
b010 6
b010 M
#10
0-
03
#15
1-
13
#16
08
bxxxxxxxxxxxxxxxxxxxxxxxxxxxxxxxx 4
bxxxxxxxxxxxxxxxxxxxxxxxxxxxxxxxx K
#20
0-
03
#25
1-
13
12
1V
#26
1=
b1001110000011000101111110010001101100000000001001000111101000101 :
b1001110000011000101111110010001101100000000001001000111101000101 O
b11110000 ;
b11110000 P
b10000111000010100111000000011100 A
b10000111000010100111000000011100 R
b00000011 C
b00000011 T
b010 D
b010 U
b00 B
b00 S
#30
0-
03
#35
1-
13
#36
1I
b0010110100001010100101100001000010011011111111001111011100110010 :
b0010110100001010100101100001000010011011111111001111011100110010 O
02
0V
bxxxxxxxxxxxxxxxxxxxxxxxxxxxxxxxx A
bxxxxxxxxxxxxxxxxxxxxxxxxxxxxxxxx R
1J
b1001110000011000101111110010001100000000000000000000000000000000 F
b1001110000011000101111110010001100000000000000000000000000000000 W
b00 G
b00 X
#40
0-
03
#45
1-
13
#46
b1010101011001111010010111100100010111111001001000001111010010010 :
b1010101011001111010010111100100010111111001001000001111010010010 O
18
b01100101111001000010101110101010 4
b01100101111001000010101110101010 K
b0010110100001010100101100001000000000000000000000000000000000000 F
b0010110100001010100101100001000000000000000000000000000000000000 W
#50
0-
03
#55
1-
13
#56
b1111011100001111011100111010111010001100111001000000101101000001 :
b1111011100001111011100111010111010001100111001000000101101000001 O
1<
08
bxxxxxxxxxxxxxxxxxxxxxxxxxxxxxxxx 4
bxxxxxxxxxxxxxxxxxxxxxxxxxxxxxxxx K
b1010101011001111010010111100100000000000000000000000000000000000 F
b1010101011001111010010111100100000000000000000000000000000000000 W
#60
0-
03
#65
1-
13
12
1V
#66
0=
0<
bxxxxxxxxxxxxxxxxxxxxxxxxxxxxxxxxxxxxxxxxxxxxxxxxxxxxxxxxxxxxxxxx :
bxxxxxxxxxxxxxxxxxxxxxxxxxxxxxxxxxxxxxxxxxxxxxxxxxxxxxxxxxxxxxxxx O
bxxxxxxxx ;
bxxxxxxxx P
b01100101111001000010101110101010 A
b01100101111001000010101110101010 R
b1111011100001111011100111010111000000000000000000000000000000000 F
b1111011100001111011100111010111000000000000000000000000000000000 W
1H
#70
0-
03
#75
1-
13
#76
11
b00 ?
b00 Q
02
0V
bxxxxxxxxxxxxxxxxxxxxxxxxxxxxxxxx A
bxxxxxxxxxxxxxxxxxxxxxxxxxxxxxxxx R
1=
b0001100110010101010001111000110100011111100100010010010100100110 :
b0001100110010101010001111000110100011111100100010010010100100110 O
b00001100 ;
b00001100 P
0I
0H
bzz G
bzz X
bxxxxxxxxxxxxxxxxxxxxxxxxxxxxxxxxxxxxxxxxxxxxxxxxxxxxxxxxxxxxxxxx F
bxxxxxxxxxxxxxxxxxxxxxxxxxxxxxxxxxxxxxxxxxxxxxxxxxxxxxxxxxxxxxxxx W
#80
0-
03
#85
1-
13
#86
1@
b1011000011100111110011110100000110010110001110001000000100110001 :
b1011000011100111110011110100000110010110001110001000000100110001 O
1I
b0000000000000000000000000000000000011111100100010000000000000000 F
b0000000000000000000000000000000000011111100100010000000000000000 W
b00 G
b00 X
#90
0-
03
#95
1-
13
b10000111000010100111000000011100 %
b00000000000000000000000000000000 )
b10000111000010100111000000011100 "
b10000111000010100111000000011100 !
b11110000 $
b00000000000000000000000000000001 )
b00000000000000000000000000000010 )
b00000000000000000000000000000011 )
#96
bzz ?
bzz Q
01
0@
b1101000110001101010000010011010000011010000001100001001110011010 :
b1101000110001101010000010011010000011010000001100001001110011010 O
b0000000000000000000000000000000010010110001110000000000000000000 F
b0000000000000000000000000000000010010110001110000000000000000000 W
#100
0-
03
#105
1-
13
#106
b1111100001100011010101100110011111001110010110010000111101001111 :
b1111100001100011010101100110011111001110010110010000111101001111 O
1<
b0000000000000000000000000000000000011010000001100000000000000000 F
b0000000000000000000000000000000000011010000001100000000000000000 W
#110
0-
03
#115
1-
13
#116
0=
0<
bxxxxxxxxxxxxxxxxxxxxxxxxxxxxxxxxxxxxxxxxxxxxxxxxxxxxxxxxxxxxxxxx :
bxxxxxxxxxxxxxxxxxxxxxxxxxxxxxxxxxxxxxxxxxxxxxxxxxxxxxxxxxxxxxxxx O
bxxxxxxxx ;
bxxxxxxxx P
b0000000000000000000000000000000011001110010110010000000000000000 F
b0000000000000000000000000000000011001110010110010000000000000000 W
1H
#120
0-
03
#125
1-
13
#126
11
b00 ?
b00 Q
0I
0H
bzz G
bzz X
bxxxxxxxxxxxxxxxxxxxxxxxxxxxxxxxxxxxxxxxxxxxxxxxxxxxxxxxxxxxxxxxx F
bxxxxxxxxxxxxxxxxxxxxxxxxxxxxxxxxxxxxxxxxxxxxxxxxxxxxxxxxxxxxxxxx W
#130
0-
03
#135
1-
13
#136
1@
#140
0-
03
#145
1-
13
b01100101111001000010101110101010 %
b00000000000000000000000000000000 )
b01100101111001000010101110101010 "
b01100101111001000010101110101000 !
b00001100 $
b01100101111001000010101110101000 %
b01100101111001000010101110101010 %
b00000000000000000000000000000001 )
b01100101111001000010101110101000 %
b01100101111001000010101110101010 %
b00000000000000000000000000000010 )
b01100101111001000010101110101000 %
b01100101111001000010101110101010 %
b00000000000000000000000000000011 )
b01100101111001000010101110101000 %
#146
bzz ?
bzz Q
01
0@
