Development/tb/dumpfile.vcd
$date
	Wed Jun 22 11:48:05 2022
$end

$version
	Synopsys VCS version R-2020.12-SP2_Full64
$end

$timescale
	1s
$end

$comment Csum: 1 2a5247227a18b934 $end


$scope module $unit $end
$upscope $end


$scope module ei_axi4_helper_functions $end

$scope function calculate_size_aligned_address $end
$var reg 32 ! calculate_size_aligned_address [31:0] $end
$var reg 32 " address [31:0] $end
$var reg 3 # awsize [2:0] $end
$upscope $end


$scope function get_wstrb $end
$var reg 8 $ get_wstrb [7:0] $end
$var reg 32 % awaddr [31:0] $end
$var reg 2 & awburst [1:0] $end
$var reg 3 ' awsize [2:0] $end
$var reg 8 ( awlen [7:0] $end
$var reg 32 ) beat_no [31:0] $end
$var reg 6 * transfer_size [5:0] $end

$scope begin unnamed$$_0 $end
$var reg 32 + lower_wrap_boundary [31:0] $end
$var reg 32 , upper_wrap_boundary [31:0] $end
$upscope $end

$upscope $end

$upscope $end


$scope module ei_axi4_top $end
$var reg 1 - aclk $end
$var reg 1 . aresetn $end
$var reg 1 / dummy $end

$scope begin unnamed$$_vcs_3 $end
$upscope $end


$scope begin unnamed$$_vcs_0 $end
$upscope $end


$scope begin unnamed$$_vcs_1 $end
$upscope $end


$scope begin unnamed$$_vcs_2 $end
$upscope $end


$scope begin unnamed$$_vcs_4 $end
$upscope $end


$scope module pif $end
$var reg 1 0 aresetn $end
$var reg 1 1 awready $end
$var reg 1 2 bvalid $end
$var reg 1 3 arvalid $end
$var reg 1 4 rlast $end
$var reg 1 5 rvalid $end
$var reg 1 6 aclk $end
$var reg 32 7 awaddr [31:0] $end
$var reg 8 8 awlen [7:0] $end
$var reg 3 9 awsize [2:0] $end
$var reg 2 : awburst [1:0] $end
$var reg 1 ; awvalid $end
$var reg 64 < wdata [63:0] $end
$var reg 8 = wstrb [7:0] $end
$var reg 1 > wlast $end
$var reg 1 ? wvalid $end
$var reg 1 @ wready $end
$var reg 2 A bresp [1:0] $end
$var reg 1 B bready $end
$var reg 32 C araddr [31:0] $end
$var reg 2 D arburst [1:0] $end
$var reg 8 E arlen [7:0] $end
$var reg 3 F arsize [2:0] $end
$var reg 1 G arready $end
$var reg 64 H rdata [63:0] $end
$var reg 2 I rresp [1:0] $end
$var reg 1 J rready $end

$scope module axi_assertion $end
$var reg 1 6 aclk $end
$var reg 1 0 aresetn $end
$var reg 32 K awaddr [31:0] $end
$var reg 8 L awlen [7:0] $end
$var reg 3 M awsize [2:0] $end
$var reg 2 N awburst [1:0] $end
$var reg 1 ; awvalid $end
$var reg 1 O awready $end
$var reg 64 P wdata [63:0] $end
$var reg 8 Q wstrb [7:0] $end
$var reg 1 > wlast $end
$var reg 1 ? wvalid $end
$var reg 1 @ wready $end
$var reg 2 R bresp [1:0] $end
$var reg 1 S bvalid $end
$var reg 1 B bready $end
$var reg 32 T araddr [31:0] $end
$var reg 2 U arburst [1:0] $end
$var reg 8 V arlen [7:0] $end
$var reg 3 W arsize [2:0] $end
$var reg 1 X arvalid $end
$var reg 1 G arready $end
$var reg 64 Y rdata [63:0] $end
$var reg 2 Z rresp [1:0] $end
$var reg 1 [ rlast $end
$var reg 1 \ rvalid $end
$var reg 1 J rready $end
$var wire 1 ] temp_aresetn $end

$scope function pass_print_f $end
$upscope $end


$scope function fail_print_f $end
$upscope $end


$scope task _$$txp______assert_AXI4_ASSERTION_002 $end
$upscope $end


$scope task _$$txp______assert_AXI4_ASSERTION_003 $end
$upscope $end


$scope task _$$txp______assert_AXI4_ASSERTION_005 $end
$upscope $end


$scope task _$$txp______assert_AXI4_ASSERTION_001 $end
$upscope $end


$scope task _$$txp______assert_AXI4_ASSERTION_004 $end
$upscope $end


$scope task _$$txp______assert_AXI4_ASSERTION_010 $end
$upscope $end


$scope task _$$txp______assert_AXI4_ASSERTION_011 $end
$upscope $end


$scope task _$$txp______assert_AXI4_ASSERTION_013 $end
$upscope $end


$scope task _$$txp______assert_AXI4_ASSERTION_009 $end
$upscope $end


$scope task _$$txp______assert_AXI4_ASSERTION_012 $end
$upscope $end


$scope task _$$txp______assert_AXI4_ASSERTION_015 $end
$upscope $end


$scope task _$$txp______assert_AXI4_ASSERTION_017 $end
$upscope $end


$scope task _$$txp______assert_AXI4_ASSERTION_019 $end
$upscope $end


$scope task _$$txp______assert_AXI4_ASSERTION_022 $end
$upscope $end


$scope task _$$txp______assert_AXI4_ASSERTION_024 $end
$upscope $end


$scope task _$$txp______assert_AXI4_ASSERTION_026 $end
$upscope $end


$scope task _$$txp______assert_AXI4_ASSERTION_031 $end
$upscope $end


$scope task _$$txp______assert_AXI4_ASSERTION_033 $end
$upscope $end


$scope task _$$txp______assert_AXI4_ASSERTION_038 $end
$upscope $end


$scope task _$$txp______assert_AXI4_ASSERTION_042 $end
$upscope $end


$scope task _$$txp______assert_AXI_ASSERTION_036 $end
$upscope $end


$scope task _$$txp______assert_AXI_ASSERTION_029 $end
$upscope $end


$scope task _$$txp_pass_action_AXI4_ASSERTION_002 $end
$upscope $end


$scope task _$$txp_fail_action_AXI4_ASSERTION_002 $end
$upscope $end


$scope task _$$txp_pass_action_AXI4_ASSERTION_003 $end
$upscope $end


$scope task _$$txp_fail_action_AXI4_ASSERTION_003 $end
$upscope $end


$scope task _$$txp_pass_action_AXI4_ASSERTION_005 $end
$upscope $end


$scope task _$$txp_fail_action_AXI4_ASSERTION_005 $end
$upscope $end


$scope task _$$txp_pass_action_AXI4_ASSERTION_001 $end
$upscope $end


$scope task _$$txp_fail_action_AXI4_ASSERTION_001 $end
$upscope $end


$scope task _$$txp_pass_action_AXI4_ASSERTION_004 $end
$upscope $end


$scope task _$$txp_fail_action_AXI4_ASSERTION_004 $end
$upscope $end


$scope task _$$txp_pass_action_AXI4_ASSERTION_007 $end
$upscope $end


$scope task _$$txp_fail_action_AXI4_ASSERTION_007 $end
$upscope $end


$scope task _$$txp_pass_action_AXI4_ASSERTION_008 $end
$upscope $end


$scope task _$$txp_fail_action_AXI4_ASSERTION_008 $end
$upscope $end


$scope task _$$txp_pass_action_AXI4_ASSERTION_006 $end
$upscope $end


$scope task _$$txp_fail_action_AXI4_ASSERTION_006 $end
$upscope $end


$scope task _$$txp_pass_action_AXI4_ASSERTION_010 $end
$upscope $end


$scope task _$$txp_fail_action_AXI4_ASSERTION_010 $end
$upscope $end


$scope task _$$txp_pass_action_AXI4_ASSERTION_011 $end
$upscope $end


$scope task _$$txp_fail_action_AXI4_ASSERTION_011 $end
$upscope $end


$scope task _$$txp_pass_action_AXI4_ASSERTION_013 $end
$upscope $end


$scope task _$$txp_fail_action_AXI4_ASSERTION_013 $end
$upscope $end


$scope task _$$txp_pass_action_AXI4_ASSERTION_009 $end
$upscope $end


$scope task _$$txp_fail_action_AXI4_ASSERTION_009 $end
$upscope $end


$scope task _$$txp_pass_action_AXI4_ASSERTION_012 $end
$upscope $end


$scope task _$$txp_fail_action_AXI4_ASSERTION_012 $end
$upscope $end


$scope task _$$txp_pass_action_AXI4_ASSERTION_014 $end
$upscope $end


$scope task _$$txp_fail_action_AXI4_ASSERTION_014 $end
$upscope $end


$scope task _$$txp_pass_action_AXI4_ASSERTION_016 $end
$upscope $end


$scope task _$$txp_fail_action_AXI4_ASSERTION_016 $end
$upscope $end


$scope task _$$txp_pass_action_AXI4_ASSERTION_018 $end
$upscope $end


$scope task _$$txp_fail_action_AXI4_ASSERTION_018 $end
$upscope $end


$scope task _$$txp_pass_action_AXI4_ASSERTION_020 $end
$upscope $end


$scope task _$$txp_fail_action_AXI4_ASSERTION_020 $end
$upscope $end


$scope task _$$txp_pass_action_AXI4_ASSERTION_021 $end
$upscope $end


$scope task _$$txp_fail_action_AXI4_ASSERTION_021 $end
$upscope $end


$scope task _$$txp_pass_action_AXI4_ASSERTION_023 $end
$upscope $end


$scope task _$$txp_fail_action_AXI4_ASSERTION_023 $end
$upscope $end


$scope task _$$txp_pass_action_AXI4_ASSERTION_025 $end
$upscope $end


$scope task _$$txp_fail_action_AXI4_ASSERTION_025 $end
$upscope $end


$scope task _$$txp_pass_action_AXI4_ASSERTION_027 $end
$upscope $end


$scope task _$$txp_fail_action_AXI4_ASSERTION_027 $end
$upscope $end


$scope task _$$txp_pass_action_AXI4_ASSERTION_028 $end
$upscope $end


$scope task _$$txp_fail_action_AXI4_ASSERTION_028 $end
$upscope $end


$scope task _$$txp_pass_action_AXI4_ASSERTION_030 $end
$upscope $end


$scope task _$$txp_fail_action_AXI4_ASSERTION_030 $end
$upscope $end


$scope task _$$txp_pass_action_AXI4_ASSERTION_032 $end
$upscope $end


$scope task _$$txp_fail_action_AXI4_ASSERTION_032 $end
$upscope $end


$scope task _$$txp_pass_action_AXI4_ASSERTION_035 $end
$upscope $end


$scope task _$$txp_fail_action_AXI4_ASSERTION_035 $end
$upscope $end


$scope task _$$txp_pass_action_AXI4_ASSERTION_037 $end
$upscope $end


$scope task _$$txp_fail_action_AXI4_ASSERTION_037 $end
$upscope $end


$scope task _$$txp_pass_action_AXI4_ASSERTION_039 $end
$upscope $end


$scope task _$$txp_fail_action_AXI4_ASSERTION_039 $end
$upscope $end


$scope task _$$txp_pass_action_AXI4_ASSERTION_041 $end
$upscope $end


$scope task _$$txp_fail_action_AXI4_ASSERTION_041 $end
$upscope $end


$scope task _$$txp_pass_action_AXI4_ASSERTION_015 $end
$upscope $end


$scope task _$$txp_fail_action_AXI4_ASSERTION_015 $end
$upscope $end


$scope task _$$txp_pass_action_AXI4_ASSERTION_017 $end
$upscope $end


$scope task _$$txp_fail_action_AXI4_ASSERTION_017 $end
$upscope $end


$scope task _$$txp_pass_action_AXI4_ASSERTION_019 $end
$upscope $end


$scope task _$$txp_fail_action_AXI4_ASSERTION_019 $end
$upscope $end


$scope task _$$txp_pass_action_AXI4_ASSERTION_022 $end
$upscope $end


$scope task _$$txp_fail_action_AXI4_ASSERTION_022 $end
$upscope $end


$scope task _$$txp_pass_action_AXI4_ASSERTION_024 $end
$upscope $end


$scope task _$$txp_fail_action_AXI4_ASSERTION_024 $end
$upscope $end


$scope task _$$txp_pass_action_AXI4_ASSERTION_026 $end
$upscope $end


$scope task _$$txp_fail_action_AXI4_ASSERTION_026 $end
$upscope $end


$scope task _$$txp_pass_action_AXI4_ASSERTION_031 $end
$upscope $end


$scope task _$$txp_fail_action_AXI4_ASSERTION_031 $end
$upscope $end


$scope task _$$txp_pass_action_AXI4_ASSERTION_033 $end
$upscope $end


$scope task _$$txp_fail_action_AXI4_ASSERTION_033 $end
$upscope $end


$scope task _$$txp_pass_action_AXI4_ASSERTION_038 $end
$upscope $end


$scope task _$$txp_fail_action_AXI4_ASSERTION_038 $end
$upscope $end


$scope task _$$txp_pass_action_AXI4_ASSERTION_042 $end
$upscope $end


$scope task _$$txp_fail_action_AXI4_ASSERTION_042 $end
$upscope $end


$scope task _$$txp_pass_action_AXI_ASSERTION_036 $end
$upscope $end


$scope task _$$txp_fail_action_AXI_ASSERTION_036 $end
$upscope $end


$scope task _$$txp_pass_action_AXI_ASSERTION_029 $end
$upscope $end


$scope task _$$txp_fail_action_AXI_ASSERTION_029 $end
$upscope $end


$scope task _$$txp_pass_action_AXI_ASSERTION_043 $end
$upscope $end


$scope task _$$txp_fail_action_AXI_ASSERTION_043 $end
$upscope $end


$scope task _$$txp_pass_action_AXI_ASSERTION_044 $end
$upscope $end


$scope task _$$txp_fail_action_AXI_ASSERTION_044 $end
$upscope $end


$scope task _$$txp_pass_action_AXI_ASSERTION_040 $end
$upscope $end


$scope task _$$txp_fail_action_AXI_ASSERTION_040 $end
$upscope $end


$scope task _$$txp_pass_action_AXI_ASSERTION_034 $end
$upscope $end


$scope task _$$txp_fail_action_AXI_ASSERTION_034 $end
$upscope $end

$upscope $end

$upscope $end

$upscope $end

$enddefinitions $end

#0
$dumpvars
b01100101111001000010101110101010 "
b010 #
b01100101111001000010101110101000 !
b01100101111001000010101110101000 %
b00 &
b00000011 (
b010 '
b00000000000000000000000000000011 )
b00001100 $
b000100 *
b00000000000000000000000000000000 +
b00000000000000000000000000000000 ,
0-
1.
bxx I
bxxxxxxxxxxxxxxxxxxxxxxxxxxxxxxxxxxxxxxxxxxxxxxxxxxxxxxxxxxxxxxxx H
bxxx F
bxxxxxxxx E
bxx D
bxxxxxxxxxxxxxxxxxxxxxxxxxxxxxxxx C
bxx A
bxxxxxxxx =
bxxxxxxxxxxxxxxxxxxxxxxxxxxxxxxxxxxxxxxxxxxxxxxxxxxxxxxxxxxxxxxxx <
bxx :
bxxx 9
bxxxxxxxx 8
bxxxxxxxxxxxxxxxxxxxxxxxxxxxxxxxx 7
bxx Z
bxxxxxxxxxxxxxxxxxxxxxxxxxxxxxxxxxxxxxxxxxxxxxxxxxxxxxxxxxxxxxxxx Y
bxxx W
bxxxxxxxx V
bxx U
bxxxxxxxxxxxxxxxxxxxxxxxxxxxxxxxx T
bxx R
bxxxxxxxx Q
bxxxxxxxxxxxxxxxxxxxxxxxxxxxxxxxxxxxxxxxxxxxxxxxxxxxxxxxxxxxxxxxx P
bxx N
bxxx M
bxxxxxxxx L
bxxxxxxxxxxxxxxxxxxxxxxxxxxxxxxxx K
0/
06
10
xG
x3
01
x;
xB
02
04
xJ
05
x>
x@
x?
0O
0S
xX
0[
0\
x]
$end
#1
1]
#5
1-
16
#6
11
1O
1@
bzz A
bzz R
1G
1;
b10000111000010100111000000011100 7
b10000111000010100111000000011100 K
b00 :
b00 N
b00000011 8
b00000011 L
b010 9
b010 M
#10
0-
06
#15
1-
16
#16
0;
bxxxxxxxxxxxxxxxxxxxxxxxxxxxxxxxx 7
bxxxxxxxxxxxxxxxxxxxxxxxxxxxxxxxx K
#20
0-
06
#25
1-
16
13
1X
#26
1?
b1001110000011000101111110010001101100000000001001000111101000101 <
b1001110000011000101111110010001101100000000001001000111101000101 P
b11110000 =
b11110000 Q
b10000111000010100111000000011100 C
b10000111000010100111000000011100 T
b00000011 E
b00000011 V
b010 F
b010 W
b00 D
b00 U
#30
0-
06
#35
1-
16
#36
15
1\
b0010110100001010100101100001000010011011111111001111011100110010 <
b0010110100001010100101100001000010011011111111001111011100110010 P
03
0X
bxxxxxxxxxxxxxxxxxxxxxxxxxxxxxxxx C
bxxxxxxxxxxxxxxxxxxxxxxxxxxxxxxxx T
1J
b1001110000011000101111110010001100000000000000000000000000000000 H
b1001110000011000101111110010001100000000000000000000000000000000 Y
b00 I
b00 Z
#40
0-
06
#45
1-
16
#46
b1010101011001111010010111100100010111111001001000001111010010010 <
b1010101011001111010010111100100010111111001001000001111010010010 P
1;
b01100101111001000010101110101010 7
b01100101111001000010101110101010 K
b0010110100001010100101100001000000000000000000000000000000000000 H
b0010110100001010100101100001000000000000000000000000000000000000 Y
#50
0-
06
#55
1-
16
#56
b1111011100001111011100111010111010001100111001000000101101000001 <
b1111011100001111011100111010111010001100111001000000101101000001 P
1>
0;
bxxxxxxxxxxxxxxxxxxxxxxxxxxxxxxxx 7
bxxxxxxxxxxxxxxxxxxxxxxxxxxxxxxxx K
b1010101011001111010010111100100000000000000000000000000000000000 H
b1010101011001111010010111100100000000000000000000000000000000000 Y
#60
0-
06
#65
1-
16
13
1X
#66
0?
0>
bxxxxxxxxxxxxxxxxxxxxxxxxxxxxxxxxxxxxxxxxxxxxxxxxxxxxxxxxxxxxxxxx <
bxxxxxxxxxxxxxxxxxxxxxxxxxxxxxxxxxxxxxxxxxxxxxxxxxxxxxxxxxxxxxxxx P
bxxxxxxxx =
bxxxxxxxx Q
b01100101111001000010101110101010 C
b01100101111001000010101110101010 T
b1111011100001111011100111010111000000000000000000000000000000000 H
b1111011100001111011100111010111000000000000000000000000000000000 Y
14
1[
#70
0-
06
#75
1-
16
#76
12
1S
b00 A
b00 R
03
0X
bxxxxxxxxxxxxxxxxxxxxxxxxxxxxxxxx C
bxxxxxxxxxxxxxxxxxxxxxxxxxxxxxxxx T
1?
b0001100110010101010001111000110100011111100100010010010100100110 <
b0001100110010101010001111000110100011111100100010010010100100110 P
b00001100 =
b00001100 Q
05
0\
04
0[
bzz I
bzz Z
bxxxxxxxxxxxxxxxxxxxxxxxxxxxxxxxxxxxxxxxxxxxxxxxxxxxxxxxxxxxxxxxx H
bxxxxxxxxxxxxxxxxxxxxxxxxxxxxxxxxxxxxxxxxxxxxxxxxxxxxxxxxxxxxxxxx Y
#80
0-
06
#85
1-
16
#86
1B
b1011000011100111110011110100000110010110001110001000000100110001 <
b1011000011100111110011110100000110010110001110001000000100110001 P
15
1\
b0000000000000000000000000000000000011111100100010000000000000000 H
b0000000000000000000000000000000000011111100100010000000000000000 Y
b00 I
b00 Z
#90
0-
06
#95
1-
16
b10000111000010100111000000011100 %
b00000000000000000000000000000000 )
b10000111000010100111000000011100 "
b10000111000010100111000000011100 !
b11110000 $
b00000000000000000000000000000001 )
b00000000000000000000000000000010 )
b00000000000000000000000000000011 )
#96
bzz A
bzz R
02
0S
0B
b1101000110001101010000010011010000011010000001100001001110011010 <
b1101000110001101010000010011010000011010000001100001001110011010 P
b0000000000000000000000000000000010010110001110000000000000000000 H
b0000000000000000000000000000000010010110001110000000000000000000 Y
#100
0-
06
#105
1-
16
#106
b1111100001100011010101100110011111001110010110010000111101001111 <
b1111100001100011010101100110011111001110010110010000111101001111 P
1>
b0000000000000000000000000000000000011010000001100000000000000000 H
b0000000000000000000000000000000000011010000001100000000000000000 Y
#110
0-
06
#115
1-
16
#116
0?
0>
bxxxxxxxxxxxxxxxxxxxxxxxxxxxxxxxxxxxxxxxxxxxxxxxxxxxxxxxxxxxxxxxx <
bxxxxxxxxxxxxxxxxxxxxxxxxxxxxxxxxxxxxxxxxxxxxxxxxxxxxxxxxxxxxxxxx P
bxxxxxxxx =
bxxxxxxxx Q
b0000000000000000000000000000000011001110010110010000000000000000 H
b0000000000000000000000000000000011001110010110010000000000000000 Y
14
1[
#120
0-
06
#125
1-
16
#126
12
1S
b00 A
b00 R
05
0\
04
0[
bzz I
bzz Z
bxxxxxxxxxxxxxxxxxxxxxxxxxxxxxxxxxxxxxxxxxxxxxxxxxxxxxxxxxxxxxxxx H
bxxxxxxxxxxxxxxxxxxxxxxxxxxxxxxxxxxxxxxxxxxxxxxxxxxxxxxxxxxxxxxxx Y
#130
0-
06
#135
1-
16
#136
1B
#140
0-
06
#145
1-
16
b01100101111001000010101110101010 %
b00000000000000000000000000000000 )
b01100101111001000010101110101010 "
b01100101111001000010101110101000 !
b00001100 $
b01100101111001000010101110101000 %
b01100101111001000010101110101010 %
b00000000000000000000000000000001 )
b01100101111001000010101110101000 %
b01100101111001000010101110101010 %
b00000000000000000000000000000010 )
b01100101111001000010101110101000 %
b01100101111001000010101110101010 %
b00000000000000000000000000000011 )
b01100101111001000010101110101000 %
#146
bzz A
bzz R
02
0S
0B
