Development/tb/dumpfile.vcd
$date
	Mon Jun 20 13:00:15 2022
$end

$version
	Synopsys VCS version R-2020.12-SP2_Full64
$end

$timescale
	1s
$end

$comment Csum: 1 3bb4ef50597fc3a2 $end


$scope module $unit $end
$upscope $end


$scope module ei_axi4_helper_functions $end

$scope function calculate_size_aligned_address $end
$var reg 32 ! calculate_size_aligned_address [31:0] $end
$var reg 32 " address [31:0] $end
$var reg 3 # awsize [2:0] $end
$upscope $end


$scope function get_wstrb $end
$var reg 8 $ get_wstrb [7:0] $end
$var reg 32 % awaddr [31:0] $end
$var reg 2 & awburst [1:0] $end
$var reg 3 ' awsize [2:0] $end
$var reg 8 ( awlen [7:0] $end
$var reg 32 ) beat_no [31:0] $end
$var reg 6 * transfer_size [5:0] $end

$scope begin unnamed$$_0 $end
$var reg 32 + lower_wrap_boundary [31:0] $end
$var reg 32 , upper_wrap_boundary [31:0] $end
$upscope $end

$upscope $end

$upscope $end


$scope module assertion $end
$var reg 1 - aclk $end
$var reg 1 . aresetn $end
$var reg 32 / awaddr [31:0] $end
$var reg 8 0 awlen [7:0] $end
$var reg 3 1 awsize [2:0] $end
$var reg 2 2 awburst [1:0] $end
$var reg 1 3 awvalid $end
$var reg 1 4 awready $end
$var reg 64 5 wdata [63:0] $end
$var reg 8 6 wstrb [7:0] $end
$var reg 1 7 wlast $end
$var reg 1 8 wvalid $end
$var reg 1 9 wready $end
$var reg 2 : bresp [1:0] $end
$var reg 1 ; bvalid $end
$var reg 1 < bready $end
$var reg 32 = araddr [31:0] $end
$var reg 2 > arburst [1:0] $end
$var reg 8 ? arlen [7:0] $end
$var reg 3 @ arsize [2:0] $end
$var reg 1 A arvalid $end
$var reg 1 B arready $end
$var reg 64 C rdata [63:0] $end
$var reg 2 D rresp [1:0] $end
$var reg 1 E rlast $end
$var reg 1 F rvalid $end
$var reg 1 G rready $end
$var wire 1 H temp_aresetn $end

$scope function pass_print_f $end
$upscope $end


$scope function fail_print_f $end
$upscope $end


$scope task _$$txp______assert_AXI4_ASSERTION_002 $end
$upscope $end


$scope task _$$txp______assert_AXI4_ASSERTION_003 $end
$upscope $end


$scope task _$$txp______assert_AXI4_ASSERTION_005 $end
$upscope $end


$scope task _$$txp______assert_AXI4_ASSERTION_001 $end
$upscope $end


$scope task _$$txp______assert_AXI4_ASSERTION_004 $end
$upscope $end


$scope task _$$txp______assert_AXI4_ASSERTION_010 $end
$upscope $end


$scope task _$$txp______assert_AXI4_ASSERTION_011 $end
$upscope $end


$scope task _$$txp______assert_AXI4_ASSERTION_013 $end
$upscope $end


$scope task _$$txp______assert_AXI4_ASSERTION_009 $end
$upscope $end


$scope task _$$txp______assert_AXI4_ASSERTION_012 $end
$upscope $end


$scope task _$$txp______assert_AXI4_ASSERTION_015 $end
$upscope $end


$scope task _$$txp______assert_AXI4_ASSERTION_017 $end
$upscope $end


$scope task _$$txp______assert_AXI4_ASSERTION_019 $end
$upscope $end


$scope task _$$txp______assert_AXI4_ASSERTION_022 $end
$upscope $end


$scope task _$$txp______assert_AXI4_ASSERTION_024 $end
$upscope $end


$scope task _$$txp______assert_AXI4_ASSERTION_026 $end
$upscope $end


$scope task _$$txp______assert_AXI4_ASSERTION_031 $end
$upscope $end


$scope task _$$txp______assert_AXI4_ASSERTION_033 $end
$upscope $end


$scope task _$$txp______assert_AXI4_ASSERTION_038 $end
$upscope $end


$scope task _$$txp______assert_AXI4_ASSERTION_042 $end
$upscope $end


$scope task _$$txp_pass_action_AXI4_ASSERTION_002 $end
$upscope $end


$scope task _$$txp_fail_action_AXI4_ASSERTION_002 $end
$upscope $end


$scope task _$$txp_pass_action_AXI4_ASSERTION_003 $end
$upscope $end


$scope task _$$txp_fail_action_AXI4_ASSERTION_003 $end
$upscope $end


$scope task _$$txp_pass_action_AXI4_ASSERTION_005 $end
$upscope $end


$scope task _$$txp_fail_action_AXI4_ASSERTION_005 $end
$upscope $end


$scope task _$$txp_pass_action_AXI4_ASSERTION_001 $end
$upscope $end


$scope task _$$txp_fail_action_AXI4_ASSERTION_001 $end
$upscope $end


$scope task _$$txp_pass_action_AXI4_ASSERTION_004 $end
$upscope $end


$scope task _$$txp_fail_action_AXI4_ASSERTION_004 $end
$upscope $end


$scope task _$$txp_pass_action_AXI4_ASSERTION_007 $end
$upscope $end


$scope task _$$txp_fail_action_AXI4_ASSERTION_007 $end
$upscope $end


$scope task _$$txp_pass_action_AXI4_ASSERTION_008 $end
$upscope $end


$scope task _$$txp_fail_action_AXI4_ASSERTION_008 $end
$upscope $end


$scope task _$$txp_pass_action_AXI4_ASSERTION_006 $end
$upscope $end


$scope task _$$txp_fail_action_AXI4_ASSERTION_006 $end
$upscope $end


$scope task _$$txp_pass_action_AXI4_ASSERTION_010 $end
$upscope $end


$scope task _$$txp_fail_action_AXI4_ASSERTION_010 $end
$upscope $end


$scope task _$$txp_pass_action_AXI4_ASSERTION_011 $end
$upscope $end


$scope task _$$txp_fail_action_AXI4_ASSERTION_011 $end
$upscope $end


$scope task _$$txp_pass_action_AXI4_ASSERTION_013 $end
$upscope $end


$scope task _$$txp_fail_action_AXI4_ASSERTION_013 $end
$upscope $end


$scope task _$$txp_pass_action_AXI4_ASSERTION_009 $end
$upscope $end


$scope task _$$txp_fail_action_AXI4_ASSERTION_009 $end
$upscope $end


$scope task _$$txp_pass_action_AXI4_ASSERTION_012 $end
$upscope $end


$scope task _$$txp_fail_action_AXI4_ASSERTION_012 $end
$upscope $end


$scope task _$$txp_pass_action_AXI4_ASSERTION_014 $end
$upscope $end


$scope task _$$txp_fail_action_AXI4_ASSERTION_014 $end
$upscope $end


$scope task _$$txp_pass_action_AXI4_ASSERTION_016 $end
$upscope $end


$scope task _$$txp_fail_action_AXI4_ASSERTION_016 $end
$upscope $end


$scope task _$$txp_pass_action_AXI4_ASSERTION_018 $end
$upscope $end


$scope task _$$txp_fail_action_AXI4_ASSERTION_018 $end
$upscope $end


$scope task _$$txp_pass_action_AXI4_ASSERTION_020 $end
$upscope $end


$scope task _$$txp_fail_action_AXI4_ASSERTION_020 $end
$upscope $end


$scope task _$$txp_pass_action_AXI4_ASSERTION_021 $end
$upscope $end


$scope task _$$txp_fail_action_AXI4_ASSERTION_021 $end
$upscope $end


$scope task _$$txp_pass_action_AXI4_ASSERTION_023 $end
$upscope $end


$scope task _$$txp_fail_action_AXI4_ASSERTION_023 $end
$upscope $end


$scope task _$$txp_pass_action_AXI4_ASSERTION_025 $end
$upscope $end


$scope task _$$txp_fail_action_AXI4_ASSERTION_025 $end
$upscope $end


$scope task _$$txp_pass_action_AXI4_ASSERTION_027 $end
$upscope $end


$scope task _$$txp_fail_action_AXI4_ASSERTION_027 $end
$upscope $end


$scope task _$$txp_pass_action_AXI4_ASSERTION_028 $end
$upscope $end


$scope task _$$txp_fail_action_AXI4_ASSERTION_028 $end
$upscope $end


$scope task _$$txp_pass_action_AXI4_ASSERTION_030 $end
$upscope $end


$scope task _$$txp_fail_action_AXI4_ASSERTION_030 $end
$upscope $end


$scope task _$$txp_pass_action_AXI4_ASSERTION_032 $end
$upscope $end


$scope task _$$txp_fail_action_AXI4_ASSERTION_032 $end
$upscope $end


$scope task _$$txp_pass_action_AXI4_ASSERTION_035 $end
$upscope $end


$scope task _$$txp_fail_action_AXI4_ASSERTION_035 $end
$upscope $end


$scope task _$$txp_pass_action_AXI4_ASSERTION_037 $end
$upscope $end


$scope task _$$txp_fail_action_AXI4_ASSERTION_037 $end
$upscope $end


$scope task _$$txp_pass_action_AXI4_ASSERTION_039 $end
$upscope $end


$scope task _$$txp_fail_action_AXI4_ASSERTION_039 $end
$upscope $end


$scope task _$$txp_pass_action_AXI4_ASSERTION_041 $end
$upscope $end


$scope task _$$txp_fail_action_AXI4_ASSERTION_041 $end
$upscope $end


$scope task _$$txp_pass_action_AXI4_ASSERTION_015 $end
$upscope $end


$scope task _$$txp_fail_action_AXI4_ASSERTION_015 $end
$upscope $end


$scope task _$$txp_pass_action_AXI4_ASSERTION_017 $end
$upscope $end


$scope task _$$txp_fail_action_AXI4_ASSERTION_017 $end
$upscope $end


$scope task _$$txp_pass_action_AXI4_ASSERTION_019 $end
$upscope $end


$scope task _$$txp_fail_action_AXI4_ASSERTION_019 $end
$upscope $end


$scope task _$$txp_pass_action_AXI4_ASSERTION_022 $end
$upscope $end


$scope task _$$txp_fail_action_AXI4_ASSERTION_022 $end
$upscope $end


$scope task _$$txp_pass_action_AXI4_ASSERTION_024 $end
$upscope $end


$scope task _$$txp_fail_action_AXI4_ASSERTION_024 $end
$upscope $end


$scope task _$$txp_pass_action_AXI4_ASSERTION_026 $end
$upscope $end


$scope task _$$txp_fail_action_AXI4_ASSERTION_026 $end
$upscope $end


$scope task _$$txp_pass_action_AXI4_ASSERTION_031 $end
$upscope $end


$scope task _$$txp_fail_action_AXI4_ASSERTION_031 $end
$upscope $end


$scope task _$$txp_pass_action_AXI4_ASSERTION_033 $end
$upscope $end


$scope task _$$txp_fail_action_AXI4_ASSERTION_033 $end
$upscope $end


$scope task _$$txp_pass_action_AXI4_ASSERTION_038 $end
$upscope $end


$scope task _$$txp_fail_action_AXI4_ASSERTION_038 $end
$upscope $end


$scope task _$$txp_pass_action_AXI4_ASSERTION_042 $end
$upscope $end


$scope task _$$txp_fail_action_AXI4_ASSERTION_042 $end
$upscope $end


$scope task _$$txp_pass_action_AXI_ASSERTION_043 $end
$upscope $end


$scope task _$$txp_fail_action_AXI_ASSERTION_043 $end
$upscope $end


$scope task _$$txp_pass_action_AXI_ASSERTION_044 $end
$upscope $end


$scope task _$$txp_fail_action_AXI_ASSERTION_044 $end
$upscope $end

$upscope $end


$scope module ei_axi4_top $end
$var reg 1 I aclk $end
$var reg 1 J aresetn $end
$var reg 1 K dummy $end

$scope begin unnamed$$_vcs_3 $end
$upscope $end


$scope begin unnamed$$_vcs_0 $end
$upscope $end


$scope begin unnamed$$_vcs_1 $end
$upscope $end


$scope begin unnamed$$_vcs_2 $end
$upscope $end


$scope begin unnamed$$_vcs_4 $end
$upscope $end


$scope module pif $end
$var reg 1 L aresetn $end
$var reg 1 M bvalid $end
$var reg 1 N arvalid $end
$var reg 1 O aclk $end
$var reg 32 P awaddr [31:0] $end
$var reg 8 Q awlen [7:0] $end
$var reg 3 R awsize [2:0] $end
$var reg 2 S awburst [1:0] $end
$var reg 1 T awvalid $end
$var reg 1 U awready $end
$var reg 64 V wdata [63:0] $end
$var reg 8 W wstrb [7:0] $end
$var reg 1 X wlast $end
$var reg 1 Y wvalid $end
$var reg 1 Z wready $end
$var reg 2 [ bresp [1:0] $end
$var reg 1 \ bready $end
$var reg 32 ] araddr [31:0] $end
$var reg 2 ^ arburst [1:0] $end
$var reg 8 _ arlen [7:0] $end
$var reg 3 ` arsize [2:0] $end
$var reg 1 a arready $end
$var reg 64 b rdata [63:0] $end
$var reg 2 c rresp [1:0] $end
$var reg 1 d rlast $end
$var reg 1 e rvalid $end
$var reg 1 f rready $end
$upscope $end

$upscope $end

$enddefinitions $end

#0
$dumpvars
b01100101111001000010101110101010 "
b010 #
b01100101111001000010101110101000 !
b01100101111001000010101110101000 %
b00 &
b00000011 (
b010 '
b00000000000000000000000000000011 )
b00001100 $
b000100 *
b00000000000000000000000000000000 +
b00000000000000000000000000000000 ,
bxxxxxxxxxxxxxxxxxxxxxxxxxxxxxxxx =
bxx >
bxxxxxxxx ?
bxxx @
bxxxxxxxxxxxxxxxxxxxxxxxxxxxxxxxx /
bxx 2
bxxxxxxxx 0
bxxx 1
bxx :
bxxxxxxxxxxxxxxxxxxxxxxxxxxxxxxxxxxxxxxxxxxxxxxxxxxxxxxxxxxxxxxxx C
bxx D
bxxxxxxxxxxxxxxxxxxxxxxxxxxxxxxxxxxxxxxxxxxxxxxxxxxxxxxxxxxxxxxxx 5
bxxxxxxxx 6
0I
1J
bxx c
bxxxxxxxxxxxxxxxxxxxxxxxxxxxxxxxxxxxxxxxxxxxxxxxxxxxxxxxxxxxxxxxx b
bxxx `
bxxxxxxxx _
bxx ^
bxxxxxxxxxxxxxxxxxxxxxxxxxxxxxxxx ]
bxx [
bxxxxxxxx W
bxxxxxxxxxxxxxxxxxxxxxxxxxxxxxxxxxxxxxxxxxxxxxxxxxxxxxxxxxxxxxxxx V
bxx S
bxxx R
bxxxxxxxx Q
bxxxxxxxxxxxxxxxxxxxxxxxxxxxxxxxx P
0K
x-
x.
x3
x4
x7
x8
x9
x;
x<
xA
xB
xE
xF
xG
xH
0O
1L
xa
xN
xU
xT
x\
xM
xd
xf
xe
xX
xZ
xY
$end
#5
1I
1O
#6
1U
1Z
bzz [
1a
1T
b10000111000010100111000000011100 P
b00 S
b00000011 Q
b010 R
#10
0I
0O
#15
1I
1O
#16
0T
#20
0I
0O
#25
1I
1O
1N
#26
1Y
b1001110000011000101111110010001101100000000001001000111101000101 V
b11110000 W
b10000111000010100111000000011100 ]
b00000011 _
b010 `
b00 ^
#30
0I
0O
#35
1I
1O
#36
1e
b0010110100001010100101100001000010011011111111001111011100110010 V
0N
1f
b1001110000011000101111110010001100000000000000000000000000000000 b
b00 c
#40
0I
0O
#45
1I
1O
#46
b1010101011001111010010111100100010111111001001000001111010010010 V
1T
b01100101111001000010101110101010 P
b0010110100001010100101100001000000000000000000000000000000000000 b
#50
0I
0O
#55
1I
1O
#56
b1111011100001111011100111010111010001100111001000000101101000001 V
1X
0T
b1010101011001111010010111100100000000000000000000000000000000000 b
#60
0I
0O
#65
1I
1O
1N
#66
0Y
0X
bxxxxxxxxxxxxxxxxxxxxxxxxxxxxxxxxxxxxxxxxxxxxxxxxxxxxxxxxxxxxxxxx V
bxxxxxxxx W
b01100101111001000010101110101010 ]
b1111011100001111011100111010111000000000000000000000000000000000 b
1d
#70
0I
0O
#75
1I
1O
#76
1M
b00 [
0N
1Y
b0001100110010101010001111000110100011111100100010010010100100110 V
b00001100 W
0e
0d
bzz c
bxxxxxxxxxxxxxxxxxxxxxxxxxxxxxxxxxxxxxxxxxxxxxxxxxxxxxxxxxxxxxxxx b
#80
0I
0O
#85
1I
1O
#86
1\
b1011000011100111110011110100000110010110001110001000000100110001 V
1e
b0000000000000000000000000000000000011111100100010000000000000000 b
b00 c
#90
0I
0O
#95
1I
1O
#96
bzz [
0M
0\
b1101000110001101010000010011010000011010000001100001001110011010 V
b0000000000000000000000000000000010010110001110000000000000000000 b
#100
0I
0O
#105
1I
1O
#106
b1111100001100011010101100110011111001110010110010000111101001111 V
1X
b0000000000000000000000000000000000011010000001100000000000000000 b
#110
0I
0O
#115
1I
1O
#116
0Y
0X
bxxxxxxxxxxxxxxxxxxxxxxxxxxxxxxxxxxxxxxxxxxxxxxxxxxxxxxxxxxxxxxxx V
bxxxxxxxx W
b0000000000000000000000000000000011001110010110010000000000000000 b
1d
#120
0I
0O
#125
1I
1O
#126
1M
b00 [
0e
0d
bzz c
bxxxxxxxxxxxxxxxxxxxxxxxxxxxxxxxxxxxxxxxxxxxxxxxxxxxxxxxxxxxxxxxx b
#130
0I
0O
#135
1I
1O
#136
1\
#140
0I
0O
#145
1I
1O
#146
bzz [
0M
0\
