Development/tb/dumpfile.vcd
$date
	Thu Jun 23 10:35:47 2022
$end

$version
	Synopsys VCS version R-2020.12-SP2_Full64
$end

$timescale
	1s
$end

$comment Csum: 1 2a5247227a18b934 $end


$scope module $unit $end
$upscope $end


$scope module ei_axi4_helper_functions $end

$scope function calculate_size_aligned_address $end
$var reg 32 ! calculate_size_aligned_address [31:0] $end
$var reg 32 " address [31:0] $end
$var reg 3 # awsize [2:0] $end
$upscope $end


$scope function get_wstrb $end
$var reg 8 $ get_wstrb [7:0] $end
$var reg 32 % awaddr [31:0] $end
$var reg 2 & awburst [1:0] $end
$var reg 3 ' awsize [2:0] $end
$var reg 8 ( awlen [7:0] $end
$var reg 32 ) beat_no [31:0] $end
$var reg 6 * transfer_size [5:0] $end

$scope begin unnamed$$_0 $end
$var reg 32 + lower_wrap_boundary [31:0] $end
$var reg 32 , upper_wrap_boundary [31:0] $end
$upscope $end

$upscope $end

$upscope $end


$scope module ei_axi4_top $end
$var reg 1 - aclk $end
$var reg 1 . aresetn $end
$var reg 1 / dummy $end

$scope begin unnamed$$_vcs_3 $end
$upscope $end


$scope begin unnamed$$_vcs_0 $end
$upscope $end


$scope begin unnamed$$_vcs_1 $end
$upscope $end


$scope begin unnamed$$_vcs_2 $end
$upscope $end


$scope begin unnamed$$_vcs_4 $end
$upscope $end


$scope module pif $end
$var reg 1 0 aresetn $end
$var reg 32 1 awaddr [31:0] $end
$var reg 8 2 awlen [7:0] $end
$var reg 3 3 awsize [2:0] $end
$var reg 2 4 awburst [1:0] $end
$var reg 1 5 awvalid $end
$var reg 1 6 awready $end
$var reg 64 7 wdata [63:0] $end
$var reg 8 8 wstrb [7:0] $end
$var reg 1 9 wlast $end
$var reg 1 : wvalid $end
$var reg 1 ; wready $end
$var reg 2 < bresp [1:0] $end
$var reg 1 = bvalid $end
$var reg 1 > bready $end
$var reg 32 ? araddr [31:0] $end
$var reg 2 @ arburst [1:0] $end
$var reg 8 A arlen [7:0] $end
$var reg 3 B arsize [2:0] $end
$var reg 1 C arvalid $end
$var reg 1 D arready $end
$var reg 2 E rresp [1:0] $end
$var reg 1 F rlast $end
$var reg 1 G rvalid $end
$var reg 1 H rready $end
$var reg 1 I aclk $end
$var reg 64 J rdata [63:0] $end

$scope module axi_assertion $end
$var reg 1 I aclk $end
$var reg 1 0 aresetn $end
$var reg 32 K awaddr [31:0] $end
$var reg 8 L awlen [7:0] $end
$var reg 3 M awsize [2:0] $end
$var reg 2 N awburst [1:0] $end
$var reg 1 O awvalid $end
$var reg 1 P awready $end
$var reg 64 Q wdata [63:0] $end
$var reg 8 R wstrb [7:0] $end
$var reg 1 S wlast $end
$var reg 1 T wvalid $end
$var reg 1 U wready $end
$var reg 2 V bresp [1:0] $end
$var reg 1 W bvalid $end
$var reg 1 X bready $end
$var reg 32 Y araddr [31:0] $end
$var reg 2 Z arburst [1:0] $end
$var reg 8 [ arlen [7:0] $end
$var reg 3 \ arsize [2:0] $end
$var reg 1 ] arvalid $end
$var reg 1 ^ arready $end
$var reg 64 _ rdata [63:0] $end
$var reg 2 ` rresp [1:0] $end
$var reg 1 a rlast $end
$var reg 1 b rvalid $end
$var reg 1 c rready $end
$var wire 1 d temp_aresetn $end

$scope function pass_print_f $end
$upscope $end


$scope function fail_print_f $end
$upscope $end


$scope task _$$txp______assert_AXI4_ASSERTION_002 $end
$upscope $end


$scope task _$$txp______assert_AXI4_ASSERTION_003 $end
$upscope $end


$scope task _$$txp______assert_AXI4_ASSERTION_005 $end
$upscope $end


$scope task _$$txp______assert_AXI4_ASSERTION_001 $end
$upscope $end


$scope task _$$txp______assert_AXI4_ASSERTION_004 $end
$upscope $end


$scope task _$$txp______assert_AXI4_ASSERTION_010 $end
$upscope $end


$scope task _$$txp______assert_AXI4_ASSERTION_011 $end
$upscope $end


$scope task _$$txp______assert_AXI4_ASSERTION_013 $end
$upscope $end


$scope task _$$txp______assert_AXI4_ASSERTION_009 $end
$upscope $end


$scope task _$$txp______assert_AXI4_ASSERTION_012 $end
$upscope $end


$scope task _$$txp______assert_AXI4_ASSERTION_015 $end
$upscope $end


$scope task _$$txp______assert_AXI4_ASSERTION_017 $end
$upscope $end


$scope task _$$txp______assert_AXI4_ASSERTION_019 $end
$upscope $end


$scope task _$$txp______assert_AXI4_ASSERTION_022 $end
$upscope $end


$scope task _$$txp______assert_AXI4_ASSERTION_024 $end
$upscope $end


$scope task _$$txp______assert_AXI4_ASSERTION_026 $end
$upscope $end


$scope task _$$txp______assert_AXI4_ASSERTION_031 $end
$upscope $end


$scope task _$$txp______assert_AXI4_ASSERTION_033 $end
$upscope $end


$scope task _$$txp______assert_AXI4_ASSERTION_038 $end
$upscope $end


$scope task _$$txp______assert_AXI4_ASSERTION_042 $end
$upscope $end


$scope task _$$txp______assert_AXI_ASSERTION_036 $end
$upscope $end


$scope task _$$txp______assert_AXI_ASSERTION_029 $end
$upscope $end


$scope task _$$txp_pass_action_AXI4_ASSERTION_002 $end
$upscope $end


$scope task _$$txp_fail_action_AXI4_ASSERTION_002 $end
$upscope $end


$scope task _$$txp_pass_action_AXI4_ASSERTION_003 $end
$upscope $end


$scope task _$$txp_fail_action_AXI4_ASSERTION_003 $end
$upscope $end


$scope task _$$txp_pass_action_AXI4_ASSERTION_005 $end
$upscope $end


$scope task _$$txp_fail_action_AXI4_ASSERTION_005 $end
$upscope $end


$scope task _$$txp_pass_action_AXI4_ASSERTION_001 $end
$upscope $end


$scope task _$$txp_fail_action_AXI4_ASSERTION_001 $end
$upscope $end


$scope task _$$txp_pass_action_AXI4_ASSERTION_004 $end
$upscope $end


$scope task _$$txp_fail_action_AXI4_ASSERTION_004 $end
$upscope $end


$scope task _$$txp_pass_action_AXI4_ASSERTION_007 $end
$upscope $end


$scope task _$$txp_fail_action_AXI4_ASSERTION_007 $end
$upscope $end


$scope task _$$txp_pass_action_AXI4_ASSERTION_008 $end
$upscope $end


$scope task _$$txp_fail_action_AXI4_ASSERTION_008 $end
$upscope $end


$scope task _$$txp_pass_action_AXI4_ASSERTION_006 $end
$upscope $end


$scope task _$$txp_fail_action_AXI4_ASSERTION_006 $end
$upscope $end


$scope task _$$txp_pass_action_AXI4_ASSERTION_010 $end
$upscope $end


$scope task _$$txp_fail_action_AXI4_ASSERTION_010 $end
$upscope $end


$scope task _$$txp_pass_action_AXI4_ASSERTION_011 $end
$upscope $end


$scope task _$$txp_fail_action_AXI4_ASSERTION_011 $end
$upscope $end


$scope task _$$txp_pass_action_AXI4_ASSERTION_013 $end
$upscope $end


$scope task _$$txp_fail_action_AXI4_ASSERTION_013 $end
$upscope $end


$scope task _$$txp_pass_action_AXI4_ASSERTION_009 $end
$upscope $end


$scope task _$$txp_fail_action_AXI4_ASSERTION_009 $end
$upscope $end


$scope task _$$txp_pass_action_AXI4_ASSERTION_012 $end
$upscope $end


$scope task _$$txp_fail_action_AXI4_ASSERTION_012 $end
$upscope $end


$scope task _$$txp_pass_action_AXI4_ASSERTION_014 $end
$upscope $end


$scope task _$$txp_fail_action_AXI4_ASSERTION_014 $end
$upscope $end


$scope task _$$txp_pass_action_AXI4_ASSERTION_016 $end
$upscope $end


$scope task _$$txp_fail_action_AXI4_ASSERTION_016 $end
$upscope $end


$scope task _$$txp_pass_action_AXI4_ASSERTION_018 $end
$upscope $end


$scope task _$$txp_fail_action_AXI4_ASSERTION_018 $end
$upscope $end


$scope task _$$txp_pass_action_AXI4_ASSERTION_020 $end
$upscope $end


$scope task _$$txp_fail_action_AXI4_ASSERTION_020 $end
$upscope $end


$scope task _$$txp_pass_action_AXI4_ASSERTION_021 $end
$upscope $end


$scope task _$$txp_fail_action_AXI4_ASSERTION_021 $end
$upscope $end


$scope task _$$txp_pass_action_AXI4_ASSERTION_023 $end
$upscope $end


$scope task _$$txp_fail_action_AXI4_ASSERTION_023 $end
$upscope $end


$scope task _$$txp_pass_action_AXI4_ASSERTION_025 $end
$upscope $end


$scope task _$$txp_fail_action_AXI4_ASSERTION_025 $end
$upscope $end


$scope task _$$txp_pass_action_AXI4_ASSERTION_027 $end
$upscope $end


$scope task _$$txp_fail_action_AXI4_ASSERTION_027 $end
$upscope $end


$scope task _$$txp_pass_action_AXI4_ASSERTION_028 $end
$upscope $end


$scope task _$$txp_fail_action_AXI4_ASSERTION_028 $end
$upscope $end


$scope task _$$txp_pass_action_AXI4_ASSERTION_030 $end
$upscope $end


$scope task _$$txp_fail_action_AXI4_ASSERTION_030 $end
$upscope $end


$scope task _$$txp_pass_action_AXI4_ASSERTION_032 $end
$upscope $end


$scope task _$$txp_fail_action_AXI4_ASSERTION_032 $end
$upscope $end


$scope task _$$txp_pass_action_AXI4_ASSERTION_035 $end
$upscope $end


$scope task _$$txp_fail_action_AXI4_ASSERTION_035 $end
$upscope $end


$scope task _$$txp_pass_action_AXI4_ASSERTION_037 $end
$upscope $end


$scope task _$$txp_fail_action_AXI4_ASSERTION_037 $end
$upscope $end


$scope task _$$txp_pass_action_AXI4_ASSERTION_039 $end
$upscope $end


$scope task _$$txp_fail_action_AXI4_ASSERTION_039 $end
$upscope $end


$scope task _$$txp_pass_action_AXI4_ASSERTION_041 $end
$upscope $end


$scope task _$$txp_fail_action_AXI4_ASSERTION_041 $end
$upscope $end


$scope task _$$txp_pass_action_AXI4_ASSERTION_015 $end
$upscope $end


$scope task _$$txp_fail_action_AXI4_ASSERTION_015 $end
$upscope $end


$scope task _$$txp_pass_action_AXI4_ASSERTION_017 $end
$upscope $end


$scope task _$$txp_fail_action_AXI4_ASSERTION_017 $end
$upscope $end


$scope task _$$txp_pass_action_AXI4_ASSERTION_019 $end
$upscope $end


$scope task _$$txp_fail_action_AXI4_ASSERTION_019 $end
$upscope $end


$scope task _$$txp_pass_action_AXI4_ASSERTION_022 $end
$upscope $end


$scope task _$$txp_fail_action_AXI4_ASSERTION_022 $end
$upscope $end


$scope task _$$txp_pass_action_AXI4_ASSERTION_024 $end
$upscope $end


$scope task _$$txp_fail_action_AXI4_ASSERTION_024 $end
$upscope $end


$scope task _$$txp_pass_action_AXI4_ASSERTION_026 $end
$upscope $end


$scope task _$$txp_fail_action_AXI4_ASSERTION_026 $end
$upscope $end


$scope task _$$txp_pass_action_AXI4_ASSERTION_031 $end
$upscope $end


$scope task _$$txp_fail_action_AXI4_ASSERTION_031 $end
$upscope $end


$scope task _$$txp_pass_action_AXI4_ASSERTION_033 $end
$upscope $end


$scope task _$$txp_fail_action_AXI4_ASSERTION_033 $end
$upscope $end


$scope task _$$txp_pass_action_AXI4_ASSERTION_038 $end
$upscope $end


$scope task _$$txp_fail_action_AXI4_ASSERTION_038 $end
$upscope $end


$scope task _$$txp_pass_action_AXI4_ASSERTION_042 $end
$upscope $end


$scope task _$$txp_fail_action_AXI4_ASSERTION_042 $end
$upscope $end


$scope task _$$txp_pass_action_AXI_ASSERTION_036 $end
$upscope $end


$scope task _$$txp_fail_action_AXI_ASSERTION_036 $end
$upscope $end


$scope task _$$txp_pass_action_AXI_ASSERTION_029 $end
$upscope $end


$scope task _$$txp_fail_action_AXI_ASSERTION_029 $end
$upscope $end


$scope task _$$txp_pass_action_AXI_ASSERTION_043 $end
$upscope $end


$scope task _$$txp_fail_action_AXI_ASSERTION_043 $end
$upscope $end


$scope task _$$txp_pass_action_AXI_ASSERTION_044 $end
$upscope $end


$scope task _$$txp_fail_action_AXI_ASSERTION_044 $end
$upscope $end


$scope task _$$txp_pass_action_AXI_ASSERTION_040 $end
$upscope $end


$scope task _$$txp_fail_action_AXI_ASSERTION_040 $end
$upscope $end


$scope task _$$txp_pass_action_AXI_ASSERTION_034 $end
$upscope $end


$scope task _$$txp_fail_action_AXI_ASSERTION_034 $end
$upscope $end

$upscope $end

$upscope $end

$upscope $end

$enddefinitions $end

#0
$dumpvars
b01100101111001000010101110101010 "
b010 #
b01100101111001000010101110101000 !
b01100101111001000010101110101000 %
b00 &
b00000011 (
b010 '
b00000000000000000000000000000011 )
b00001100 $
b000100 *
b00000000000000000000000000000000 +
b00000000000000000000000000000000 ,
0-
1.
bxxxxxxxxxxxxxxxxxxxxxxxxxxxxxxxxxxxxxxxxxxxxxxxxxxxxxxxxxxxxxxxx J
b000 B
b00000000 A
b00000000000000000000000000000000 ?
b00000000 8
b0000000000000000000000000000000000000000000000000000000000000000 7
b000 3
b00000000 2
b00000000000000000000000000000000 1
b00 E
b00 @
b00 <
b00 4
b00 `
bxxxxxxxxxxxxxxxxxxxxxxxxxxxxxxxxxxxxxxxxxxxxxxxxxxxxxxxxxxxxxxxx _
b000 \
b00000000 [
b00 Z
b00000000000000000000000000000000 Y
b00 V
b00000000 R
b0000000000000000000000000000000000000000000000000000000000000000 Q
b00 N
b000 M
b00000000 L
b00000000000000000000000000000000 K
0/
0I
10
0D
0C
06
05
0>
0=
0F
0H
0G
09
0;
0:
0O
0P
0S
0T
0U
0W
0X
0]
0^
0a
0b
0c
xd
$end
#1
1d
#5
1-
1I
#6
16
1P
1;
1U
1D
1^
15
1O
b10000111000010100111000000011100 K
b10000111000010100111000000011100 1
b00000011 L
b00000011 2
b010 M
b010 3
#10
0-
0I
#15
1-
1I
#16
05
0O
#20
0-
0I
#25
1-
1I
1C
1]
#26
1:
1T
b1001110000011000101111110010001101100000000001001000111101000101 Q
b1001110000011000101111110010001101100000000001001000111101000101 7
b11110000 R
b11110000 8
b10000111000010100111000000011100 Y
b10000111000010100111000000011100 ?
b00000011 [
b00000011 A
b010 \
b010 B
#30
0-
0I
#35
1-
1I
#36
1G
1b
b0010110100001010100101100001000010011011111111001111011100110010 Q
b0010110100001010100101100001000010011011111111001111011100110010 7
0C
0]
1H
1c
b1001110000011000101111110010001100000000000000000000000000000000 J
b1001110000011000101111110010001100000000000000000000000000000000 _
#40
0-
0I
#45
1-
1I
#46
b1010101011001111010010111100100010111111001001000001111010010010 Q
b1010101011001111010010111100100010111111001001000001111010010010 7
15
1O
b01100101111001000010101110101010 K
b01100101111001000010101110101010 1
b0010110100001010100101100001000000000000000000000000000000000000 J
b0010110100001010100101100001000000000000000000000000000000000000 _
#50
0-
0I
#55
1-
1I
#56
b1111011100001111011100111010111010001100111001000000101101000001 Q
b1111011100001111011100111010111010001100111001000000101101000001 7
19
1S
05
0O
b1010101011001111010010111100100000000000000000000000000000000000 J
b1010101011001111010010111100100000000000000000000000000000000000 _
#60
0-
0I
#65
1-
1I
1C
1]
#66
0:
0T
09
0S
b01100101111001000010101110101010 Y
b01100101111001000010101110101010 ?
b1111011100001111011100111010111000000000000000000000000000000000 J
b1111011100001111011100111010111000000000000000000000000000000000 _
1F
1a
#70
0-
0I
#75
1-
1I
#76
1=
1W
0C
0]
1:
1T
b0001100110010101010001111000110100011111100100010010010100100110 Q
b0001100110010101010001111000110100011111100100010010010100100110 7
b00001100 R
b00001100 8
0G
0b
0F
0a
#80
0-
0I
#85
1-
1I
#86
1>
1X
b1011000011100111110011110100000110010110001110001000000100110001 Q
b1011000011100111110011110100000110010110001110001000000100110001 7
1G
1b
b0000000000000000000000000000000000011111100100010000000000000000 J
b0000000000000000000000000000000000011111100100010000000000000000 _
#90
0-
0I
#95
1-
1I
b10000111000010100111000000011100 %
b00000000000000000000000000000000 )
b10000111000010100111000000011100 "
b10000111000010100111000000011100 !
b11110000 $
b00000000000000000000000000000001 )
b00000000000000000000000000000010 )
b00000000000000000000000000000011 )
#96
0=
0W
0>
0X
b1101000110001101010000010011010000011010000001100001001110011010 Q
b1101000110001101010000010011010000011010000001100001001110011010 7
b0000000000000000000000000000000010010110001110000000000000000000 J
b0000000000000000000000000000000010010110001110000000000000000000 _
#100
0-
0I
#105
1-
1I
#106
b1111100001100011010101100110011111001110010110010000111101001111 Q
b1111100001100011010101100110011111001110010110010000111101001111 7
19
1S
b0000000000000000000000000000000000011010000001100000000000000000 J
b0000000000000000000000000000000000011010000001100000000000000000 _
#110
0-
0I
#115
1-
1I
#116
0:
0T
09
0S
b0000000000000000000000000000000011001110010110010000000000000000 J
b0000000000000000000000000000000011001110010110010000000000000000 _
1F
1a
#120
0-
0I
#125
1-
1I
#126
1=
1W
0G
0b
0F
0a
#130
0-
0I
#135
1-
1I
#136
1>
1X
#140
0-
0I
#145
1-
1I
b01100101111001000010101110101010 %
b00000000000000000000000000000000 )
b01100101111001000010101110101010 "
b01100101111001000010101110101000 !
b00001100 $
b01100101111001000010101110101000 %
b01100101111001000010101110101010 %
b00000000000000000000000000000001 )
b01100101111001000010101110101000 %
b01100101111001000010101110101010 %
b00000000000000000000000000000010 )
b01100101111001000010101110101000 %
b01100101111001000010101110101010 %
b00000000000000000000000000000011 )
b01100101111001000010101110101000 %
#146
0=
0W
0>
0X
