Development/tb/dumpfile.vcd
$date
	Thu Jun 16 10:48:03 2022
$end

$version
	Synopsys VCS version R-2020.12-SP2_Full64
$end

$timescale
	1s
$end

$comment Csum: 1 db962d2dd3c06260 $end


$scope module $unit $end
$upscope $end


$scope module ei_axi4_helper_functions $end

$scope function calculate_size_aligned_address $end
$var reg 32 ! calculate_size_aligned_address [31:0] $end
$var reg 32 " address [31:0] $end
$var reg 3 # awsize [2:0] $end
$upscope $end


$scope function get_wstrb $end
$var reg 8 $ get_wstrb [7:0] $end
$var reg 32 % awaddr [31:0] $end
$var reg 2 & awburst [1:0] $end
$var reg 3 ' awsize [2:0] $end
$var reg 8 ( awlen [7:0] $end
$var reg 32 ) beat_no [31:0] $end
$var reg 6 * transfer_size [5:0] $end

$scope begin unnamed$$_0 $end
$var reg 32 + lower_wrap_boundary [31:0] $end
$var reg 32 , upper_wrap_boundary [31:0] $end
$upscope $end

$upscope $end

$upscope $end


$scope module assertion $end
$var reg 1 - aclk $end
$var reg 1 . aresetn $end
$var reg 32 / awaddr [31:0] $end
$var reg 8 0 awlen [7:0] $end
$var reg 3 1 awsize [2:0] $end
$var reg 2 2 awburst [1:0] $end
$var reg 1 3 awvalid $end
$var reg 1 4 awready $end
$var reg 64 5 wdata [63:0] $end
$var reg 8 6 wstrb [7:0] $end
$var reg 1 7 wlast $end
$var reg 1 8 wvalid $end
$var reg 1 9 wready $end
$var reg 2 : bresp [1:0] $end
$var reg 1 ; bvalid $end
$var reg 1 < bready $end
$var reg 32 = araddr [31:0] $end
$var reg 2 > arburst [1:0] $end
$var reg 8 ? arlen [7:0] $end
$var reg 3 @ arsize [2:0] $end
$var reg 1 A arvalid $end
$var reg 1 B arready $end
$var reg 64 C rdata [63:0] $end
$var reg 2 D rresp [1:0] $end
$var reg 1 E rlast $end
$var reg 1 F rvalid $end
$var reg 1 G rready $end
$var wire 1 H temp_aresetn $end

$scope function pass_print_f $end
$upscope $end


$scope function fail_print_f $end
$upscope $end


$scope task _$$txp______assert_AXI4_ASSERTION_002 $end
$upscope $end


$scope task _$$txp______assert_AXI4_ASSERTION_003 $end
$upscope $end


$scope task _$$txp______assert_AXI4_ASSERTION_005 $end
$upscope $end


$scope task _$$txp______assert_AXI4_ASSERTION_001 $end
$upscope $end


$scope task _$$txp______assert_AXI4_ASSERTION_004 $end
$upscope $end


$scope task _$$txp______assert_AXI4_ASSERTION_010 $end
$upscope $end


$scope task _$$txp______assert_AXI4_ASSERTION_011 $end
$upscope $end


$scope task _$$txp______assert_AXI4_ASSERTION_013 $end
$upscope $end


$scope task _$$txp______assert_AXI4_ASSERTION_009 $end
$upscope $end


$scope task _$$txp______assert_AXI4_ASSERTION_012 $end
$upscope $end


$scope task _$$txp______assert_AXI4_ASSERTION_015 $end
$upscope $end


$scope task _$$txp______assert_AXI4_ASSERTION_017 $end
$upscope $end


$scope task _$$txp______assert_AXI4_ASSERTION_019 $end
$upscope $end


$scope task _$$txp______assert_AXI4_ASSERTION_022 $end
$upscope $end


$scope task _$$txp______assert_AXI4_ASSERTION_024 $end
$upscope $end


$scope task _$$txp______assert_AXI4_ASSERTION_026 $end
$upscope $end


$scope task _$$txp______assert_AXI4_ASSERTION_031 $end
$upscope $end


$scope task _$$txp______assert_AXI4_ASSERTION_033 $end
$upscope $end


$scope task _$$txp______assert_AXI4_ASSERTION_038 $end
$upscope $end


$scope task _$$txp______assert_AXI4_ASSERTION_042 $end
$upscope $end


$scope task _$$txp_pass_action_AXI4_ASSERTION_002 $end
$upscope $end


$scope task _$$txp_fail_action_AXI4_ASSERTION_002 $end
$upscope $end


$scope task _$$txp_pass_action_AXI4_ASSERTION_003 $end
$upscope $end


$scope task _$$txp_fail_action_AXI4_ASSERTION_003 $end
$upscope $end


$scope task _$$txp_pass_action_AXI4_ASSERTION_005 $end
$upscope $end


$scope task _$$txp_fail_action_AXI4_ASSERTION_005 $end
$upscope $end


$scope task _$$txp_pass_action_AXI4_ASSERTION_001 $end
$upscope $end


$scope task _$$txp_fail_action_AXI4_ASSERTION_001 $end
$upscope $end


$scope task _$$txp_pass_action_AXI4_ASSERTION_004 $end
$upscope $end


$scope task _$$txp_fail_action_AXI4_ASSERTION_004 $end
$upscope $end


$scope task _$$txp_pass_action_AXI4_ASSERTION_007 $end
$upscope $end


$scope task _$$txp_fail_action_AXI4_ASSERTION_007 $end
$upscope $end


$scope task _$$txp_pass_action_AXI4_ASSERTION_008 $end
$upscope $end


$scope task _$$txp_fail_action_AXI4_ASSERTION_008 $end
$upscope $end


$scope task _$$txp_pass_action_AXI4_ASSERTION_006 $end
$upscope $end


$scope task _$$txp_fail_action_AXI4_ASSERTION_006 $end
$upscope $end


$scope task _$$txp_pass_action_AXI4_ASSERTION_010 $end
$upscope $end


$scope task _$$txp_fail_action_AXI4_ASSERTION_010 $end
$upscope $end


$scope task _$$txp_pass_action_AXI4_ASSERTION_011 $end
$upscope $end


$scope task _$$txp_fail_action_AXI4_ASSERTION_011 $end
$upscope $end


$scope task _$$txp_pass_action_AXI4_ASSERTION_013 $end
$upscope $end


$scope task _$$txp_fail_action_AXI4_ASSERTION_013 $end
$upscope $end


$scope task _$$txp_pass_action_AXI4_ASSERTION_009 $end
$upscope $end


$scope task _$$txp_fail_action_AXI4_ASSERTION_009 $end
$upscope $end


$scope task _$$txp_pass_action_AXI4_ASSERTION_012 $end
$upscope $end


$scope task _$$txp_fail_action_AXI4_ASSERTION_012 $end
$upscope $end


$scope task _$$txp_pass_action_AXI4_ASSERTION_014 $end
$upscope $end


$scope task _$$txp_fail_action_AXI4_ASSERTION_014 $end
$upscope $end


$scope task _$$txp_pass_action_AXI4_ASSERTION_016 $end
$upscope $end


$scope task _$$txp_fail_action_AXI4_ASSERTION_016 $end
$upscope $end


$scope task _$$txp_pass_action_AXI4_ASSERTION_018 $end
$upscope $end


$scope task _$$txp_fail_action_AXI4_ASSERTION_018 $end
$upscope $end


$scope task _$$txp_pass_action_AXI4_ASSERTION_020 $end
$upscope $end


$scope task _$$txp_fail_action_AXI4_ASSERTION_020 $end
$upscope $end


$scope task _$$txp_pass_action_AXI4_ASSERTION_021 $end
$upscope $end


$scope task _$$txp_fail_action_AXI4_ASSERTION_021 $end
$upscope $end


$scope task _$$txp_pass_action_AXI4_ASSERTION_023 $end
$upscope $end


$scope task _$$txp_fail_action_AXI4_ASSERTION_023 $end
$upscope $end


$scope task _$$txp_pass_action_AXI4_ASSERTION_025 $end
$upscope $end


$scope task _$$txp_fail_action_AXI4_ASSERTION_025 $end
$upscope $end


$scope task _$$txp_pass_action_AXI4_ASSERTION_027 $end
$upscope $end


$scope task _$$txp_fail_action_AXI4_ASSERTION_027 $end
$upscope $end


$scope task _$$txp_pass_action_AXI4_ASSERTION_028 $end
$upscope $end


$scope task _$$txp_fail_action_AXI4_ASSERTION_028 $end
$upscope $end


$scope task _$$txp_pass_action_AXI4_ASSERTION_030 $end
$upscope $end


$scope task _$$txp_fail_action_AXI4_ASSERTION_030 $end
$upscope $end


$scope task _$$txp_pass_action_AXI4_ASSERTION_032 $end
$upscope $end


$scope task _$$txp_fail_action_AXI4_ASSERTION_032 $end
$upscope $end


$scope task _$$txp_pass_action_AXI4_ASSERTION_035 $end
$upscope $end


$scope task _$$txp_fail_action_AXI4_ASSERTION_035 $end
$upscope $end


$scope task _$$txp_pass_action_AXI4_ASSERTION_037 $end
$upscope $end


$scope task _$$txp_fail_action_AXI4_ASSERTION_037 $end
$upscope $end


$scope task _$$txp_pass_action_AXI4_ASSERTION_039 $end
$upscope $end


$scope task _$$txp_fail_action_AXI4_ASSERTION_039 $end
$upscope $end


$scope task _$$txp_pass_action_AXI4_ASSERTION_041 $end
$upscope $end


$scope task _$$txp_fail_action_AXI4_ASSERTION_041 $end
$upscope $end


$scope task _$$txp_pass_action_AXI4_ASSERTION_015 $end
$upscope $end


$scope task _$$txp_fail_action_AXI4_ASSERTION_015 $end
$upscope $end


$scope task _$$txp_pass_action_AXI4_ASSERTION_017 $end
$upscope $end


$scope task _$$txp_fail_action_AXI4_ASSERTION_017 $end
$upscope $end


$scope task _$$txp_pass_action_AXI4_ASSERTION_019 $end
$upscope $end


$scope task _$$txp_fail_action_AXI4_ASSERTION_019 $end
$upscope $end


$scope task _$$txp_pass_action_AXI4_ASSERTION_022 $end
$upscope $end


$scope task _$$txp_fail_action_AXI4_ASSERTION_022 $end
$upscope $end


$scope task _$$txp_pass_action_AXI4_ASSERTION_024 $end
$upscope $end


$scope task _$$txp_fail_action_AXI4_ASSERTION_024 $end
$upscope $end


$scope task _$$txp_pass_action_AXI4_ASSERTION_026 $end
$upscope $end


$scope task _$$txp_fail_action_AXI4_ASSERTION_026 $end
$upscope $end


$scope task _$$txp_pass_action_AXI4_ASSERTION_031 $end
$upscope $end


$scope task _$$txp_fail_action_AXI4_ASSERTION_031 $end
$upscope $end


$scope task _$$txp_pass_action_AXI4_ASSERTION_033 $end
$upscope $end


$scope task _$$txp_fail_action_AXI4_ASSERTION_033 $end
$upscope $end


$scope task _$$txp_pass_action_AXI4_ASSERTION_038 $end
$upscope $end


$scope task _$$txp_fail_action_AXI4_ASSERTION_038 $end
$upscope $end


$scope task _$$txp_pass_action_AXI4_ASSERTION_042 $end
$upscope $end


$scope task _$$txp_fail_action_AXI4_ASSERTION_042 $end
$upscope $end

$upscope $end


$scope module ei_axi4_top $end
$var reg 1 I aclk $end
$var reg 1 J aresetn $end
$var reg 1 K dummy $end

$scope begin unnamed$$_vcs_3 $end
$upscope $end


$scope begin unnamed$$_vcs_0 $end
$upscope $end


$scope begin unnamed$$_vcs_1 $end
$upscope $end


$scope begin unnamed$$_vcs_2 $end
$upscope $end


$scope begin unnamed$$_vcs_4 $end
$upscope $end


$scope module pif $end
$var reg 1 L aresetn $end
$var reg 1 M bvalid $end
$var reg 1 N bready $end
$var reg 1 O arvalid $end
$var reg 1 P aclk $end
$var reg 32 Q awaddr [31:0] $end
$var reg 8 R awlen [7:0] $end
$var reg 3 S awsize [2:0] $end
$var reg 2 T awburst [1:0] $end
$var reg 1 U awvalid $end
$var reg 1 V awready $end
$var reg 64 W wdata [63:0] $end
$var reg 8 X wstrb [7:0] $end
$var reg 1 Y wlast $end
$var reg 1 Z wvalid $end
$var reg 1 [ wready $end
$var reg 2 \ bresp [1:0] $end
$var reg 32 ] araddr [31:0] $end
$var reg 2 ^ arburst [1:0] $end
$var reg 8 _ arlen [7:0] $end
$var reg 3 ` arsize [2:0] $end
$var reg 1 a arready $end
$var reg 64 b rdata [63:0] $end
$var reg 2 c rresp [1:0] $end
$var reg 1 d rlast $end
$var reg 1 e rvalid $end
$var reg 1 f rready $end
$upscope $end

$upscope $end

$enddefinitions $end

#0
$dumpvars
b10000101010010011001001110011110 "
b010 #
b10000101010010011001001110011100 !
b10000101010010011001001110011100 %
b01 &
b00000011 (
b010 '
b00000000000000000000000000000011 )
b11110000 $
b000100 *
b00000000000000000000000000000000 +
b00000000000000000000000000000000 ,
bxxxxxxxxxxxxxxxxxxxxxxxxxxxxxxxx =
bxx >
bxxxxxxxx ?
bxxx @
bxxxxxxxxxxxxxxxxxxxxxxxxxxxxxxxx /
bxx 2
bxxxxxxxx 0
bxxx 1
bxx :
bxxxxxxxxxxxxxxxxxxxxxxxxxxxxxxxxxxxxxxxxxxxxxxxxxxxxxxxxxxxxxxxx C
bxx D
bxxxxxxxxxxxxxxxxxxxxxxxxxxxxxxxxxxxxxxxxxxxxxxxxxxxxxxxxxxxxxxxx 5
bxxxxxxxx 6
0I
1J
bxx c
bxxxxxxxxxxxxxxxxxxxxxxxxxxxxxxxxxxxxxxxxxxxxxxxxxxxxxxxxxxxxxxxx b
bxxx `
bxxxxxxxx _
bxx ^
bxxxxxxxxxxxxxxxxxxxxxxxxxxxxxxxx ]
bxx \
bxxxxxxxx X
bxxxxxxxxxxxxxxxxxxxxxxxxxxxxxxxxxxxxxxxxxxxxxxxxxxxxxxxxxxxxxxxx W
bxx T
bxxx S
bxxxxxxxx R
bxxxxxxxxxxxxxxxxxxxxxxxxxxxxxxxx Q
0K
x-
x.
x3
x4
x7
x8
x9
x;
x<
xA
xB
xE
xF
xG
xH
0P
1L
xa
xO
xV
xU
xN
xM
xd
xf
xe
xY
x[
xZ
$end
#5
1I
1P
1O
#6
1V
1[
1a
b00111010001111011100001110001010 ]
b00000011 _
b010 `
b01 ^
#10
0I
0P
#15
1I
1P
#16
0O
0d
1e
b0000000000000000000000000000000000000000000000000000000000000000 b
b00 c
1f
#20
0I
0P
#25
1I
1P
1O
#26
b00101001111100000101011101001000 ]
#30
0I
0P
#35
1I
1P
#36
0O
#40
0I
0P
#45
1I
1P
1O
#46
1d
b01100100010011101010010101000100 ]
#50
0I
0P
#55
1I
1P
#56
0e
0d
0O
#60
0I
0P
#65
1I
1P
1O
#66
1e
b00000000010100110100100100111110 ]
#70
0I
0P
#75
1I
1P
#76
0O
#80
0I
0P
#85
1I
1P
1O
#86
b10011110101010111110110011110010 ]
#90
0I
0P
#95
1I
1P
#96
1d
0O
0d
#100
0I
0P
#105
1I
1P
1O
#106
0e
b11100101001110011001101010011100 ]
#110
0I
0P
#115
1I
1P
#116
1e
0O
#120
0I
0P
#125
1I
1P
1O
#126
b01001001011110101111110111000110 ]
#130
0I
0P
#135
1I
1P
#136
0O
#140
0I
0P
#145
1I
1P
1O
#146
1d
b10000101010010011001001110010010 ]
#150
0I
0P
#155
1I
1P
#156
0e
0d
0O
#160
0I
0P
#165
1I
1P
#166
1e
#170
0I
0P
#175
1I
1P
#180
0I
0P
#185
1I
1P
#190
0I
0P
#195
1I
1P
#196
1d
#200
0I
0P
#205
1I
1P
#206
0e
0d
#210
0I
0P
#215
1I
1P
#216
1e
#220
0I
0P
#225
1I
1P
#230
0I
0P
#235
1I
1P
#240
0I
0P
#245
1I
1P
#246
1d
#250
0I
0P
#255
1I
1P
#256
0e
0d
#260
0I
0P
#265
1I
1P
#266
1e
#270
0I
0P
#275
1I
1P
#280
0I
0P
#285
1I
1P
#290
0I
0P
#295
1I
1P
#296
1d
#300
0I
0P
#305
1I
1P
#306
0e
0d
#310
0I
0P
#315
1I
1P
#316
1e
#320
0I
0P
#325
1I
1P
#330
0I
0P
#335
1I
1P
#340
0I
0P
#345
1I
1P
#346
1d
#350
0I
0P
#355
1I
1P
#356
0e
0d
#360
0I
0P
#365
1I
1P
#366
1e
#370
0I
0P
#375
1I
1P
#380
0I
0P
#385
1I
1P
#390
0I
0P
#395
1I
1P
#396
1d
#400
0I
0P
#405
1I
1P
#406
0e
0d
