Development/tb/dumpfile.vcd
$date
	Fri Jun 17 14:34:39 2022
$end

$version
	Synopsys VCS version R-2020.12-SP2_Full64
$end

$timescale
	1s
$end

$comment Csum: 1 3bb4ef50597fc3a2 $end


$scope module $unit $end
$upscope $end


$scope module ei_axi4_helper_functions $end

$scope function calculate_size_aligned_address $end
$var reg 32 ! calculate_size_aligned_address [31:0] $end
$var reg 32 " address [31:0] $end
$var reg 3 # awsize [2:0] $end
$upscope $end


$scope function get_wstrb $end
$var reg 8 $ get_wstrb [7:0] $end
$var reg 32 % awaddr [31:0] $end
$var reg 2 & awburst [1:0] $end
$var reg 3 ' awsize [2:0] $end
$var reg 8 ( awlen [7:0] $end
$var reg 32 ) beat_no [31:0] $end
$var reg 6 * transfer_size [5:0] $end

$scope begin unnamed$$_0 $end
$var reg 32 + lower_wrap_boundary [31:0] $end
$var reg 32 , upper_wrap_boundary [31:0] $end
$upscope $end

$upscope $end

$upscope $end


$scope module assertion $end
$var reg 1 - aclk $end
$var reg 1 . aresetn $end
$var reg 32 / awaddr [31:0] $end
$var reg 8 0 awlen [7:0] $end
$var reg 3 1 awsize [2:0] $end
$var reg 2 2 awburst [1:0] $end
$var reg 1 3 awvalid $end
$var reg 1 4 awready $end
$var reg 64 5 wdata [63:0] $end
$var reg 8 6 wstrb [7:0] $end
$var reg 1 7 wlast $end
$var reg 1 8 wvalid $end
$var reg 1 9 wready $end
$var reg 2 : bresp [1:0] $end
$var reg 1 ; bvalid $end
$var reg 1 < bready $end
$var reg 32 = araddr [31:0] $end
$var reg 2 > arburst [1:0] $end
$var reg 8 ? arlen [7:0] $end
$var reg 3 @ arsize [2:0] $end
$var reg 1 A arvalid $end
$var reg 1 B arready $end
$var reg 64 C rdata [63:0] $end
$var reg 2 D rresp [1:0] $end
$var reg 1 E rlast $end
$var reg 1 F rvalid $end
$var reg 1 G rready $end
$var wire 1 H temp_aresetn $end

$scope function pass_print_f $end
$upscope $end


$scope function fail_print_f $end
$upscope $end


$scope task _$$txp______assert_AXI4_ASSERTION_002 $end
$upscope $end


$scope task _$$txp______assert_AXI4_ASSERTION_003 $end
$upscope $end


$scope task _$$txp______assert_AXI4_ASSERTION_005 $end
$upscope $end


$scope task _$$txp______assert_AXI4_ASSERTION_001 $end
$upscope $end


$scope task _$$txp______assert_AXI4_ASSERTION_004 $end
$upscope $end


$scope task _$$txp______assert_AXI4_ASSERTION_010 $end
$upscope $end


$scope task _$$txp______assert_AXI4_ASSERTION_011 $end
$upscope $end


$scope task _$$txp______assert_AXI4_ASSERTION_013 $end
$upscope $end


$scope task _$$txp______assert_AXI4_ASSERTION_009 $end
$upscope $end


$scope task _$$txp______assert_AXI4_ASSERTION_012 $end
$upscope $end


$scope task _$$txp______assert_AXI4_ASSERTION_015 $end
$upscope $end


$scope task _$$txp______assert_AXI4_ASSERTION_017 $end
$upscope $end


$scope task _$$txp______assert_AXI4_ASSERTION_019 $end
$upscope $end


$scope task _$$txp______assert_AXI4_ASSERTION_022 $end
$upscope $end


$scope task _$$txp______assert_AXI4_ASSERTION_024 $end
$upscope $end


$scope task _$$txp______assert_AXI4_ASSERTION_026 $end
$upscope $end


$scope task _$$txp______assert_AXI4_ASSERTION_031 $end
$upscope $end


$scope task _$$txp______assert_AXI4_ASSERTION_033 $end
$upscope $end


$scope task _$$txp______assert_AXI4_ASSERTION_038 $end
$upscope $end


$scope task _$$txp______assert_AXI4_ASSERTION_042 $end
$upscope $end


$scope task _$$txp_pass_action_AXI4_ASSERTION_002 $end
$upscope $end


$scope task _$$txp_fail_action_AXI4_ASSERTION_002 $end
$upscope $end


$scope task _$$txp_pass_action_AXI4_ASSERTION_003 $end
$upscope $end


$scope task _$$txp_fail_action_AXI4_ASSERTION_003 $end
$upscope $end


$scope task _$$txp_pass_action_AXI4_ASSERTION_005 $end
$upscope $end


$scope task _$$txp_fail_action_AXI4_ASSERTION_005 $end
$upscope $end


$scope task _$$txp_pass_action_AXI4_ASSERTION_001 $end
$upscope $end


$scope task _$$txp_fail_action_AXI4_ASSERTION_001 $end
$upscope $end


$scope task _$$txp_pass_action_AXI4_ASSERTION_004 $end
$upscope $end


$scope task _$$txp_fail_action_AXI4_ASSERTION_004 $end
$upscope $end


$scope task _$$txp_pass_action_AXI4_ASSERTION_007 $end
$upscope $end


$scope task _$$txp_fail_action_AXI4_ASSERTION_007 $end
$upscope $end


$scope task _$$txp_pass_action_AXI4_ASSERTION_008 $end
$upscope $end


$scope task _$$txp_fail_action_AXI4_ASSERTION_008 $end
$upscope $end


$scope task _$$txp_pass_action_AXI4_ASSERTION_006 $end
$upscope $end


$scope task _$$txp_fail_action_AXI4_ASSERTION_006 $end
$upscope $end


$scope task _$$txp_pass_action_AXI4_ASSERTION_010 $end
$upscope $end


$scope task _$$txp_fail_action_AXI4_ASSERTION_010 $end
$upscope $end


$scope task _$$txp_pass_action_AXI4_ASSERTION_011 $end
$upscope $end


$scope task _$$txp_fail_action_AXI4_ASSERTION_011 $end
$upscope $end


$scope task _$$txp_pass_action_AXI4_ASSERTION_013 $end
$upscope $end


$scope task _$$txp_fail_action_AXI4_ASSERTION_013 $end
$upscope $end


$scope task _$$txp_pass_action_AXI4_ASSERTION_009 $end
$upscope $end


$scope task _$$txp_fail_action_AXI4_ASSERTION_009 $end
$upscope $end


$scope task _$$txp_pass_action_AXI4_ASSERTION_012 $end
$upscope $end


$scope task _$$txp_fail_action_AXI4_ASSERTION_012 $end
$upscope $end


$scope task _$$txp_pass_action_AXI4_ASSERTION_014 $end
$upscope $end


$scope task _$$txp_fail_action_AXI4_ASSERTION_014 $end
$upscope $end


$scope task _$$txp_pass_action_AXI4_ASSERTION_016 $end
$upscope $end


$scope task _$$txp_fail_action_AXI4_ASSERTION_016 $end
$upscope $end


$scope task _$$txp_pass_action_AXI4_ASSERTION_018 $end
$upscope $end


$scope task _$$txp_fail_action_AXI4_ASSERTION_018 $end
$upscope $end


$scope task _$$txp_pass_action_AXI4_ASSERTION_020 $end
$upscope $end


$scope task _$$txp_fail_action_AXI4_ASSERTION_020 $end
$upscope $end


$scope task _$$txp_pass_action_AXI4_ASSERTION_021 $end
$upscope $end


$scope task _$$txp_fail_action_AXI4_ASSERTION_021 $end
$upscope $end


$scope task _$$txp_pass_action_AXI4_ASSERTION_023 $end
$upscope $end


$scope task _$$txp_fail_action_AXI4_ASSERTION_023 $end
$upscope $end


$scope task _$$txp_pass_action_AXI4_ASSERTION_025 $end
$upscope $end


$scope task _$$txp_fail_action_AXI4_ASSERTION_025 $end
$upscope $end


$scope task _$$txp_pass_action_AXI4_ASSERTION_027 $end
$upscope $end


$scope task _$$txp_fail_action_AXI4_ASSERTION_027 $end
$upscope $end


$scope task _$$txp_pass_action_AXI4_ASSERTION_028 $end
$upscope $end


$scope task _$$txp_fail_action_AXI4_ASSERTION_028 $end
$upscope $end


$scope task _$$txp_pass_action_AXI4_ASSERTION_030 $end
$upscope $end


$scope task _$$txp_fail_action_AXI4_ASSERTION_030 $end
$upscope $end


$scope task _$$txp_pass_action_AXI4_ASSERTION_032 $end
$upscope $end


$scope task _$$txp_fail_action_AXI4_ASSERTION_032 $end
$upscope $end


$scope task _$$txp_pass_action_AXI4_ASSERTION_035 $end
$upscope $end


$scope task _$$txp_fail_action_AXI4_ASSERTION_035 $end
$upscope $end


$scope task _$$txp_pass_action_AXI4_ASSERTION_037 $end
$upscope $end


$scope task _$$txp_fail_action_AXI4_ASSERTION_037 $end
$upscope $end


$scope task _$$txp_pass_action_AXI4_ASSERTION_039 $end
$upscope $end


$scope task _$$txp_fail_action_AXI4_ASSERTION_039 $end
$upscope $end


$scope task _$$txp_pass_action_AXI4_ASSERTION_041 $end
$upscope $end


$scope task _$$txp_fail_action_AXI4_ASSERTION_041 $end
$upscope $end


$scope task _$$txp_pass_action_AXI4_ASSERTION_015 $end
$upscope $end


$scope task _$$txp_fail_action_AXI4_ASSERTION_015 $end
$upscope $end


$scope task _$$txp_pass_action_AXI4_ASSERTION_017 $end
$upscope $end


$scope task _$$txp_fail_action_AXI4_ASSERTION_017 $end
$upscope $end


$scope task _$$txp_pass_action_AXI4_ASSERTION_019 $end
$upscope $end


$scope task _$$txp_fail_action_AXI4_ASSERTION_019 $end
$upscope $end


$scope task _$$txp_pass_action_AXI4_ASSERTION_022 $end
$upscope $end


$scope task _$$txp_fail_action_AXI4_ASSERTION_022 $end
$upscope $end


$scope task _$$txp_pass_action_AXI4_ASSERTION_024 $end
$upscope $end


$scope task _$$txp_fail_action_AXI4_ASSERTION_024 $end
$upscope $end


$scope task _$$txp_pass_action_AXI4_ASSERTION_026 $end
$upscope $end


$scope task _$$txp_fail_action_AXI4_ASSERTION_026 $end
$upscope $end


$scope task _$$txp_pass_action_AXI4_ASSERTION_031 $end
$upscope $end


$scope task _$$txp_fail_action_AXI4_ASSERTION_031 $end
$upscope $end


$scope task _$$txp_pass_action_AXI4_ASSERTION_033 $end
$upscope $end


$scope task _$$txp_fail_action_AXI4_ASSERTION_033 $end
$upscope $end


$scope task _$$txp_pass_action_AXI4_ASSERTION_038 $end
$upscope $end


$scope task _$$txp_fail_action_AXI4_ASSERTION_038 $end
$upscope $end


$scope task _$$txp_pass_action_AXI4_ASSERTION_042 $end
$upscope $end


$scope task _$$txp_fail_action_AXI4_ASSERTION_042 $end
$upscope $end


$scope task _$$txp_pass_action_AXI_ASSERTION_043 $end
$upscope $end


$scope task _$$txp_fail_action_AXI_ASSERTION_043 $end
$upscope $end


$scope task _$$txp_pass_action_AXI_ASSERTION_044 $end
$upscope $end


$scope task _$$txp_fail_action_AXI_ASSERTION_044 $end
$upscope $end

$upscope $end


$scope module ei_axi4_top $end
$var reg 1 I aclk $end
$var reg 1 J aresetn $end
$var reg 1 K dummy $end

$scope begin unnamed$$_vcs_3 $end
$upscope $end


$scope begin unnamed$$_vcs_0 $end
$upscope $end


$scope begin unnamed$$_vcs_1 $end
$upscope $end


$scope begin unnamed$$_vcs_2 $end
$upscope $end


$scope begin unnamed$$_vcs_4 $end
$upscope $end


$scope module pif $end
$var reg 1 L aresetn $end
$var reg 1 M bvalid $end
$var reg 1 N arvalid $end
$var reg 1 O aclk $end
$var reg 32 P awaddr [31:0] $end
$var reg 8 Q awlen [7:0] $end
$var reg 3 R awsize [2:0] $end
$var reg 2 S awburst [1:0] $end
$var reg 1 T awvalid $end
$var reg 1 U awready $end
$var reg 64 V wdata [63:0] $end
$var reg 8 W wstrb [7:0] $end
$var reg 1 X wlast $end
$var reg 1 Y wvalid $end
$var reg 1 Z wready $end
$var reg 2 [ bresp [1:0] $end
$var reg 1 \ bready $end
$var reg 32 ] araddr [31:0] $end
$var reg 2 ^ arburst [1:0] $end
$var reg 8 _ arlen [7:0] $end
$var reg 3 ` arsize [2:0] $end
$var reg 1 a arready $end
$var reg 64 b rdata [63:0] $end
$var reg 2 c rresp [1:0] $end
$var reg 1 d rlast $end
$var reg 1 e rvalid $end
$var reg 1 f rready $end
$upscope $end

$upscope $end

$enddefinitions $end

#0
$dumpvars
b00000000010100110100100101001010 "
b010 #
b00000000010100110100100101001000 !
b00000000010100110100100101001000 %
b01 &
b00000011 (
b010 '
b00000000000000000000000000000011 )
b00001111 $
b000100 *
b00000000000000000000000000000000 +
b00000000000000000000000000000000 ,
bxxxxxxxxxxxxxxxxxxxxxxxxxxxxxxxx =
bxx >
bxxxxxxxx ?
bxxx @
bxxxxxxxxxxxxxxxxxxxxxxxxxxxxxxxx /
bxx 2
bxxxxxxxx 0
bxxx 1
bxx :
bxxxxxxxxxxxxxxxxxxxxxxxxxxxxxxxxxxxxxxxxxxxxxxxxxxxxxxxxxxxxxxxx C
bxx D
bxxxxxxxxxxxxxxxxxxxxxxxxxxxxxxxxxxxxxxxxxxxxxxxxxxxxxxxxxxxxxxxx 5
bxxxxxxxx 6
0I
1J
bxx c
bxxxxxxxxxxxxxxxxxxxxxxxxxxxxxxxxxxxxxxxxxxxxxxxxxxxxxxxxxxxxxxxx b
bxxx `
bxxxxxxxx _
bxx ^
bxxxxxxxxxxxxxxxxxxxxxxxxxxxxxxxx ]
bxx [
bxxxxxxxx W
bxxxxxxxxxxxxxxxxxxxxxxxxxxxxxxxxxxxxxxxxxxxxxxxxxxxxxxxxxxxxxxxx V
bxx S
bxxx R
bxxxxxxxx Q
bxxxxxxxxxxxxxxxxxxxxxxxxxxxxxxxx P
0K
x-
x.
x3
x4
x7
x8
x9
x;
x<
xA
xB
xE
xF
xG
xH
0O
1L
xa
xN
xU
xT
x\
xM
xd
xf
xe
xX
xZ
xY
$end
#5
1I
1O
#6
1U
1Z
1a
1T
b00111010001111011100001110001010 P
b01 S
b00000011 Q
b010 R
#10
0I
0O
#15
1I
1O
#16
0T
#20
0I
0O
#25
1I
1O
#26
1Y
1T
b00101001111100000101011101001000 P
b0101111001111110000010000101011100110011000100000010101011110110 V
b00001100 W
#30
0I
0O
#35
1I
1O
#36
0T
b1000010101111010100010100000011010100010001110110001101000101110 V
b11110000 W
#40
0I
0O
#45
1I
1O
#46
b0111110100011110100110101001011101011110000110100101100100010000 V
b00001111 W
1T
b01100100010011101010010101000100 P
#50
0I
0O
#55
1I
1O
#56
b0010000011001100111111001011011111010111110101010100101011111110 V
b11110000 W
1X
0T
#60
0I
0O
#65
1I
1O
#66
0Y
0X
bxxxxxxxxxxxxxxxxxxxxxxxxxxxxxxxxxxxxxxxxxxxxxxxxxxxxxxxxxxxxxxxx V
bxxxxxxxx W
1T
b00000000010100110100100100111110 P
#70
0I
0O
#75
1I
1O
#76
0Z
1M
b00 [
0T
#80
0I
0O
#85
1I
1O
#86
1\
#90
0I
0O
#95
1I
1O
#96
bzz [
0M
1Z
0\
#100
0I
0O
#105
1I
1O
#106
1Y
b1111010110001001001110111111001011111111011001011001100000111111 V
b00001111 W
#110
0I
0O
#115
1I
1O
#116
b1011000001011000011001001100100011101011000100101101111010000101 V
b11110000 W
#120
0I
0O
#125
1I
1O
#126
b0010011110010011111000111011010001011110001110100101001111011100 V
b00001111 W
#130
0I
0O
#135
1I
1O
#136
b1111110000011111100111011010100000100010101111000010100110010101 V
b11110000 W
1X
#140
0I
0O
#145
1I
1O
#146
0Y
0X
bxxxxxxxxxxxxxxxxxxxxxxxxxxxxxxxxxxxxxxxxxxxxxxxxxxxxxxxxxxxxxxxx V
bxxxxxxxx W
#150
0I
0O
#155
1I
1O
#156
0Z
1M
b00 [
#160
0I
0O
#165
1I
1O
#166
1\
#170
0I
0O
#175
1I
1O
#176
bzz [
0M
1Z
0\
#180
0I
0O
#185
1I
1O
#186
1Y
b1100110010010110110010000011100000011011101001101001000101000011 V
b11110000 W
#190
0I
0O
#195
1I
1O
#196
b1111000111010101001101110001110100100010000111011101101001001100 V
b00001111 W
#200
0I
0O
#205
1I
1O
#206
b1111011011110011010011011010000101011011110100110001000010010111 V
b11110000 W
#210
0I
0O
#215
1I
1O
#216
b1010111100110011000111110101001111011110011111011100010010011101 V
b00001111 W
1X
#220
0I
0O
#225
1I
1O
#226
0Y
0X
bxxxxxxxxxxxxxxxxxxxxxxxxxxxxxxxxxxxxxxxxxxxxxxxxxxxxxxxxxxxxxxxx V
bxxxxxxxx W
#230
0I
0O
#235
1I
1O
#236
0Z
1M
b00 [
#240
0I
0O
#245
1I
1O
#246
1\
#250
0I
0O
#255
1I
1O
#256
bzz [
0M
1Z
0\
#260
0I
0O
#265
1I
1O
#266
1Y
b1111111111001001000001011000111100101000011001100001000100000101 V
b11000000 W
#270
0I
0O
#275
1I
1O
#276
b0010010010100101001001110110001100110000010001011110100100001000 V
b00001111 W
#280
0I
0O
#285
1I
1O
#286
b1010100101100001011110101100010010000011010110001010111101000100 V
b11110000 W
#290
0I
0O
#295
1I
1O
#296
b1111100110110001000100111110001001011010111010001010100001011000 V
b00001111 W
1X
#300
0I
0O
#305
1I
1O
#306
0Y
0X
bxxxxxxxxxxxxxxxxxxxxxxxxxxxxxxxxxxxxxxxxxxxxxxxxxxxxxxxxxxxxxxxx V
bxxxxxxxx W
#310
0I
0O
#315
1I
1O
#316
0Z
1M
b00 [
#320
0I
0O
#325
1I
1O
#326
1\
#330
0I
0O
#335
1I
1O
#336
bzz [
0M
1Z
0\
